<?xml version="1.0" encoding="UTF-8" standalone="no"?>
<svg
   xmlns:dc="http://purl.org/dc/elements/1.1/"
   xmlns:cc="http://creativecommons.org/ns#"
   xmlns:rdf="http://www.w3.org/1999/02/22-rdf-syntax-ns#"
   xmlns:svg="http://www.w3.org/2000/svg"
   xmlns="http://www.w3.org/2000/svg"
   xmlns:xlink="http://www.w3.org/1999/xlink"
   xmlns:sodipodi="http://sodipodi.sourceforge.net/DTD/sodipodi-0.dtd"
   xmlns:inkscape="http://www.inkscape.org/namespaces/inkscape"
   sodipodi:docname="single-world-bounds.svg"
   inkscape:version="1.0 (1.0+r73+1)"
   id="svg3438"
   version="1.1"
   viewBox="0 0 210 297"
   height="297mm"
   width="210mm">
  <defs
     id="defs3432">
    <marker
       inkscape:stockid="Arrow1Lend"
       orient="auto"
       refY="0"
       refX="0"
       id="Arrow1Lend"
       style="overflow:visible"
       inkscape:isstock="true">
      <path
         id="path2394"
         d="M 0,0 5,-5 -12.5,0 5,5 Z"
         style="fill:#000000;fill-opacity:1;fill-rule:evenodd;stroke:#000000;stroke-width:1pt;stroke-opacity:1"
         transform="matrix(-0.8,0,0,-0.8,-10,0)" />
    </marker>
    <marker
       inkscape:isstock="true"
       style="overflow:visible"
       id="Arrow1Lend-3"
       refX="0"
       refY="0"
       orient="auto"
       inkscape:stockid="Arrow1Lend">
      <path
         transform="matrix(-0.8,0,0,-0.8,-10,0)"
         style="fill:#000000;fill-opacity:1;fill-rule:evenodd;stroke:#000000;stroke-width:1pt;stroke-opacity:1"
         d="M 0,0 5,-5 -12.5,0 5,5 Z"
         id="path2394-6" />
    </marker>
    <rect
       x="59.894299"
       y="309.93564"
       width="165.73157"
       height="54.660702"
       id="rect2383" />
    <rect
       x="59.894299"
       y="309.93564"
       width="165.73157"
       height="54.660702"
       id="rect4056" />
    <g
       id="g4111">
      <symbol
         id="symbol7017"
         overflow="visible">
        <path
           id="path7433"
           d=""
           style="stroke:none;" />
      </symbol>
      <symbol
         id="symbol5264"
         overflow="visible">
        <path
           id="path4947"
           d="M 7.171875 -6.5625 C 7.1875 -6.609375 7.203125 -6.65625 7.203125 -6.71875 C 7.203125 -6.8125 7.15625 -6.8125 6.953125 -6.8125 L 2.75 -6.8125 C 2.515625 -6.8125 2.5 -6.796875 2.4375 -6.609375 L 1.890625 -4.8125 C 1.875 -4.765625 1.859375 -4.6875 1.859375 -4.671875 C 1.859375 -4.671875 1.859375 -4.5625 1.984375 -4.5625 C 2.078125 -4.5625 2.09375 -4.640625 2.109375 -4.671875 C 2.5 -5.84375 3.015625 -6.5 4.5625 -6.5 L 6.1875 -6.5 L 0.625 -0.265625 C 0.625 -0.265625 0.578125 -0.125 0.578125 -0.09375 C 0.578125 0 0.640625 0 0.828125 0 L 5.15625 0 C 5.40625 0 5.40625 -0.015625 5.46875 -0.203125 L 6.1875 -2.40625 C 6.1875 -2.4375 6.21875 -2.515625 6.21875 -2.546875 C 6.21875 -2.609375 6.1875 -2.65625 6.09375 -2.65625 C 6 -2.65625 5.984375 -2.625 5.921875 -2.40625 C 5.484375 -1.0625 5 -0.34375 3.3125 -0.34375 L 1.609375 -0.34375 Z M 7.171875 -6.5625 "
           style="stroke:none;" />
      </symbol>
      <symbol
         id="symbol378"
         overflow="visible">
        <path
           id="path9321"
           d="M 1.328125 -0.828125 C 1.859375 -1.40625 2.15625 -1.65625 2.515625 -1.96875 C 2.515625 -1.96875 3.125 -2.5 3.484375 -2.859375 C 4.4375 -3.78125 4.65625 -4.265625 4.65625 -4.3125 C 4.65625 -4.40625 4.5625 -4.40625 4.546875 -4.40625 C 4.46875 -4.40625 4.453125 -4.390625 4.390625 -4.296875 C 4.09375 -3.8125 3.890625 -3.65625 3.65625 -3.65625 C 3.40625 -3.65625 3.296875 -3.8125 3.140625 -3.984375 C 2.953125 -4.203125 2.78125 -4.40625 2.453125 -4.40625 C 1.703125 -4.40625 1.25 -3.484375 1.25 -3.265625 C 1.25 -3.21875 1.28125 -3.15625 1.359375 -3.15625 C 1.453125 -3.15625 1.46875 -3.203125 1.5 -3.265625 C 1.6875 -3.734375 2.265625 -3.734375 2.34375 -3.734375 C 2.546875 -3.734375 2.734375 -3.671875 2.96875 -3.59375 C 3.375 -3.4375 3.484375 -3.4375 3.734375 -3.4375 C 3.375 -3.015625 2.546875 -2.296875 2.359375 -2.140625 L 1.453125 -1.296875 C 0.78125 -0.625 0.421875 -0.0625 0.421875 0.015625 C 0.421875 0.109375 0.53125 0.109375 0.546875 0.109375 C 0.625 0.109375 0.640625 0.09375 0.703125 -0.015625 C 0.9375 -0.375 1.234375 -0.640625 1.5625 -0.640625 C 1.78125 -0.640625 1.890625 -0.546875 2.140625 -0.265625 C 2.296875 -0.046875 2.484375 0.109375 2.765625 0.109375 C 3.765625 0.109375 4.34375 -1.15625 4.34375 -1.421875 C 4.34375 -1.46875 4.296875 -1.53125 4.21875 -1.53125 C 4.125 -1.53125 4.109375 -1.46875 4.078125 -1.390625 C 3.84375 -0.75 3.203125 -0.5625 2.875 -0.5625 C 2.6875 -0.5625 2.5 -0.625 2.296875 -0.6875 C 1.953125 -0.8125 1.796875 -0.859375 1.59375 -0.859375 C 1.578125 -0.859375 1.421875 -0.859375 1.328125 -0.828125 Z M 1.328125 -0.828125 "
           style="stroke:none;" />
      </symbol>
      <symbol
         id="symbol8925"
         overflow="visible">
        <path
           id="path1664"
           d=""
           style="stroke:none;" />
      </symbol>
      <symbol
         id="symbol2186"
         overflow="visible">
        <path
           id="path7942"
           d="M 6.84375 -3.265625 C 7 -3.265625 7.1875 -3.265625 7.1875 -3.453125 C 7.1875 -3.65625 7 -3.65625 6.859375 -3.65625 L 0.890625 -3.65625 C 0.75 -3.65625 0.5625 -3.65625 0.5625 -3.453125 C 0.5625 -3.265625 0.75 -3.265625 0.890625 -3.265625 Z M 6.859375 -1.328125 C 7 -1.328125 7.1875 -1.328125 7.1875 -1.53125 C 7.1875 -1.71875 7 -1.71875 6.84375 -1.71875 L 0.890625 -1.71875 C 0.75 -1.71875 0.5625 -1.71875 0.5625 -1.53125 C 0.5625 -1.328125 0.75 -1.328125 0.890625 -1.328125 Z M 6.859375 -1.328125 "
           style="stroke:none;" />
      </symbol>
      <symbol
         id="symbol5220"
         overflow="visible">
        <path
           id="path7998"
           d="M 4.28125 -5.578125 L 4.28125 -5.875 L 0.6875 -5.875 L 0.6875 -5.578125 Z M 4.28125 -5.578125 "
           style="stroke:none;" />
      </symbol>
    </g>
    <g
       id="g898">
      <symbol
         id="symbol4384"
         overflow="visible">
        <path
           id="path6768"
           d=""
           style="stroke:none;" />
      </symbol>
      <symbol
         id="symbol5680"
         overflow="visible">
        <path
           id="path2102"
           d="M 7.171875 -6.5625 C 7.1875 -6.609375 7.203125 -6.65625 7.203125 -6.71875 C 7.203125 -6.8125 7.15625 -6.8125 6.953125 -6.8125 L 2.75 -6.8125 C 2.515625 -6.8125 2.5 -6.796875 2.4375 -6.609375 L 1.890625 -4.8125 C 1.875 -4.765625 1.859375 -4.6875 1.859375 -4.671875 C 1.859375 -4.671875 1.859375 -4.5625 1.984375 -4.5625 C 2.078125 -4.5625 2.09375 -4.640625 2.109375 -4.671875 C 2.5 -5.84375 3.015625 -6.5 4.5625 -6.5 L 6.1875 -6.5 L 0.625 -0.265625 C 0.625 -0.265625 0.578125 -0.125 0.578125 -0.09375 C 0.578125 0 0.640625 0 0.828125 0 L 5.15625 0 C 5.40625 0 5.40625 -0.015625 5.46875 -0.203125 L 6.1875 -2.40625 C 6.1875 -2.4375 6.21875 -2.515625 6.21875 -2.546875 C 6.21875 -2.609375 6.1875 -2.65625 6.09375 -2.65625 C 6 -2.65625 5.984375 -2.625 5.921875 -2.40625 C 5.484375 -1.0625 5 -0.34375 3.3125 -0.34375 L 1.609375 -0.34375 Z M 7.171875 -6.5625 "
           style="stroke:none;" />
      </symbol>
      <symbol
         id="symbol5460"
         overflow="visible">
        <path
           id="path4871"
           d="M 1.328125 -0.828125 C 1.859375 -1.40625 2.15625 -1.65625 2.515625 -1.96875 C 2.515625 -1.96875 3.125 -2.5 3.484375 -2.859375 C 4.4375 -3.78125 4.65625 -4.265625 4.65625 -4.3125 C 4.65625 -4.40625 4.5625 -4.40625 4.546875 -4.40625 C 4.46875 -4.40625 4.453125 -4.390625 4.390625 -4.296875 C 4.09375 -3.8125 3.890625 -3.65625 3.65625 -3.65625 C 3.40625 -3.65625 3.296875 -3.8125 3.140625 -3.984375 C 2.953125 -4.203125 2.78125 -4.40625 2.453125 -4.40625 C 1.703125 -4.40625 1.25 -3.484375 1.25 -3.265625 C 1.25 -3.21875 1.28125 -3.15625 1.359375 -3.15625 C 1.453125 -3.15625 1.46875 -3.203125 1.5 -3.265625 C 1.6875 -3.734375 2.265625 -3.734375 2.34375 -3.734375 C 2.546875 -3.734375 2.734375 -3.671875 2.96875 -3.59375 C 3.375 -3.4375 3.484375 -3.4375 3.734375 -3.4375 C 3.375 -3.015625 2.546875 -2.296875 2.359375 -2.140625 L 1.453125 -1.296875 C 0.78125 -0.625 0.421875 -0.0625 0.421875 0.015625 C 0.421875 0.109375 0.53125 0.109375 0.546875 0.109375 C 0.625 0.109375 0.640625 0.09375 0.703125 -0.015625 C 0.9375 -0.375 1.234375 -0.640625 1.5625 -0.640625 C 1.78125 -0.640625 1.890625 -0.546875 2.140625 -0.265625 C 2.296875 -0.046875 2.484375 0.109375 2.765625 0.109375 C 3.765625 0.109375 4.34375 -1.15625 4.34375 -1.421875 C 4.34375 -1.46875 4.296875 -1.53125 4.21875 -1.53125 C 4.125 -1.53125 4.109375 -1.46875 4.078125 -1.390625 C 3.84375 -0.75 3.203125 -0.5625 2.875 -0.5625 C 2.6875 -0.5625 2.5 -0.625 2.296875 -0.6875 C 1.953125 -0.8125 1.796875 -0.859375 1.59375 -0.859375 C 1.578125 -0.859375 1.421875 -0.859375 1.328125 -0.828125 Z M 1.328125 -0.828125 "
           style="stroke:none;" />
      </symbol>
      <symbol
         id="symbol6268"
         overflow="visible">
        <path
           id="path2398"
           d=""
           style="stroke:none;" />
      </symbol>
      <symbol
         id="symbol1372"
         overflow="visible">
        <path
           id="path7575"
           d="M 6.84375 -3.265625 C 7 -3.265625 7.1875 -3.265625 7.1875 -3.453125 C 7.1875 -3.65625 7 -3.65625 6.859375 -3.65625 L 0.890625 -3.65625 C 0.75 -3.65625 0.5625 -3.65625 0.5625 -3.453125 C 0.5625 -3.265625 0.75 -3.265625 0.890625 -3.265625 Z M 6.859375 -1.328125 C 7 -1.328125 7.1875 -1.328125 7.1875 -1.53125 C 7.1875 -1.71875 7 -1.71875 6.84375 -1.71875 L 0.890625 -1.71875 C 0.75 -1.71875 0.5625 -1.71875 0.5625 -1.53125 C 0.5625 -1.328125 0.75 -1.328125 0.890625 -1.328125 Z M 6.859375 -1.328125 "
           style="stroke:none;" />
      </symbol>
    </g>
  </defs>
  <sodipodi:namedview
     inkscape:window-maximized="1"
     inkscape:window-y="0"
     inkscape:window-x="0"
     inkscape:window-height="744"
     inkscape:window-width="1366"
     showgrid="false"
     inkscape:document-rotation="0"
     inkscape:current-layer="layer1"
     inkscape:document-units="mm"
     inkscape:cy="560"
     inkscape:cx="400"
     inkscape:zoom="0.35"
     inkscape:pageshadow="2"
     inkscape:pageopacity="0.0"
     borderopacity="1.0"
     bordercolor="#666666"
     pagecolor="#ffffff"
     id="base" />
  <metadata
     id="metadata3435">
    <rdf:RDF>
      <cc:Work
         rdf:about="">
        <dc:format>image/svg+xml</dc:format>
        <dc:type
           rdf:resource="http://purl.org/dc/dcmitype/StillImage" />
        <dc:title></dc:title>
      </cc:Work>
    </rdf:RDF>
  </metadata>
  <g
     id="layer1"
     inkscape:groupmode="layer"
     inkscape:label="Layer 1">
    <image
       y="40.058327"
       x="2.7160473"
       width="67.73333"
       height="67.73333"
       preserveAspectRatio="none"
       xlink:href="data:image/png;base64,iVBORw0KGgoAAAANSUhEUgAAAQAAAAEACAYAAABccqhmAAAABHNCSVQICAgIfAhkiAAAIABJREFU eJztnXt4U3We/9/NpTRp2tIbpU0JNknTqiC0KIxDuSjD1JlRgX3UHWH2saPODo+XVWdc3HF+ruWZ HeYR7+Pow+yMWp9nkR10VxB31y6iRWFn5NKCMNCmTUtD0xRIb6FNeknS3x/JCbmca3KSc9Kc1/P0 0eacnPNtyPd9Pt/P93PJmJmZgYSERHoiE3oAEhISwiEJgIREGiMJgIREGiMJgIREGiMJgIREGiMJ gIREGiMJgIREGiMJgIREGiMJgIREGiMJgIREGiMJgIREGiMJgIREGiMJgIREGiMJgIREGiMJgIRE GiMJgIREGiMJgIREGiMJgIREGiMJgIREGiMJgIREGiMJgIREGiMJgIREGiMJgIREGiMJgIREGiMJ gIREGiMJgIREGiMJgIREGqMQegAS/GMw6JcCmBvx8nWBH4KWyPdZLN1Rr0nMbjKk5qCph8Ggvw7+ ybwW/olOTPglPN2iF8CFkJ9TAC5YLN2neLq+hEiQBEDkGAz6ufBP9KUh/80TcEiH4ReEUwBOSaKQ 2kgCIDJCJjzxw9dTPVGMwr+caAGwz2LpviDkYCS4IQmACAiY9BsDP2uEHU3c9ALYB6DFYuneJ/Rg JOiRBEAgQiZ9A8T/lI+VUfjFYJ8kBuJEEoAkEjDvG8DTpJepZJDNVwEqOaCdw+5NQ9P+HwAzI1Pw Dk/HOwy2SGIgQiQBSAIGg5540m+I9RqK0jnIMGjgKcvCdEEmrMZs3sancXtRYJuA3O2Fst8dFAlP zzhv94iAWCa8JvkMhEUSgAQR8rR/EsBCru9XlM4BFuViwqDhdbJzpXhoCqqhaWRZxgDbJDA8CY99 ks9bHAbQZLF0N/F5UQl2SALAM4G1fSOAB7i8T6aSQVahgXdRDi4tzsWYSp6I4fGGrmscc2xuZFhc mLG7+VhKjAJogmQVJBVJAHjCYNCvhf9pz8nMV9yQi+lb5qJncW4ihpU0ioemoLFNINMyjhnLWLxW wn74haCFn9FJUCEJQJwEJn4jOGzfKUrnwLuqKCWe9LGicXtR3DUO5VknZrrHY7UQTsMvBE38jk6C QBKAGOE68WUqGWQ35GJ8dRFs2qwEjkycaG0TUHeNIePEcCzWQS+uLQ9GeB9cGiMJAEe4Tnx5vhKo K4R9ef6sfdpzpXhoCvnNl+E754TP7ePy1lEAr0ESAt6QBIAlXJ178nwlfOvnwbI8P5HDSmk0bi/K vnTAd2QwFiHYB6BRchjGhyQADAS2854E8Dyb8xUV2ZheXZjyTr1korVNYM6rXbG+/T1IQhAzkgDQ EAjgeQ0s9vGlJ37smPb0wXMyboteEoIYkASAhMBTvwkst/Tk+Up0/rIqoWOajWjcXpS91c13YNF2 SD4C1kgCEEHgqd8Ejjn3kunPDa1tAuqm3kTlIkjOQpZIAhCA61OfCmK7z2vIhtOYjSsFmbyMbzZh ODaMjAN2ro6/WOiFf1nQlOgbpSqSACBYQ28fYojZZ4LI2MvQZsGXr8SkVgV3gTJthaFqnx3TRwYZ z1MXlqDq7ocAAD0H/4SRPks8tz0N4EkpsjCatBcAg0HfAODdZN9Xnq+E7MZcDK0uTAsxKB6aQv67 vazW+0WmJVjx+MtQqDXB1xztJ/DXPa/GKwTvwS8E0rIgQFoLgMGgbwKHpJ1MVTZyFxiRt6ASSpWG 9BznxS64Bu2cvqiKG3IxsbpQ0Ky/RFJxxgn53j5WJr/u1jtQ83Aj5XHrkY/R8fHbcA1einU4o/Av C16L9QKzibQUgMB6vwUsi3IUmZagasNPUFR9M6f7DLR+AXvrYQyc+gpTbubc+kQ5ErWBXH8A13L+ Q5gwXBMzPpcnGrcXZXts8JxzsjqfafKH0vHRLnQf+oDV50rBYQAN6b5tmHYCwGW9n6nKRs2D/w/z a2+L654e1xj6Wz/HX//9dVZfWK7hw0TO/hybGxkTXqDL5b9vnAU9FBUBi8SoxkyWHJNaFbwqOatc Bq6Ovuo7G1C1aSun8XlcYzjz/kuw/vlTTu8LIe2tgbQSgMDkbwGLLT6ydWi8eFxjsDT/G9o/aWL9 HkVFNmBURx/gaZLHijxfiYy5mVHlyDLcPvj+6mS9vacuLEHNg89xtq5C4cE/kLbWQNoIAJf9/Vie RlxwOfrR9vZ2OMynE3aPVKD6zgYY6n/Em8h2N+9Gx4F3Yl0WjMIvAmlVrzAtBICtpz9TlY0bf/gE dHV3J35QiPsLm7IUmZag5qHnoS4q4/3aPIjr6xZL95N8jknMzHoB4DL5V257C7m65Ib0EsuCOB1a AIC55QYo1JqoXQrX4AAc5rZ4POe8EKszNRYGWr9A2zv/EutnehrA2nTYLpzVAsB28qsLS7DisZ1J n/yROK0dGLF2wH2ln/FcVXFZ8AnKdkI5rR2wHjkA+6mvkiYGmapsLPj296D/7uaEPPHpiNMaGIVf BGZ167NZKwBsJ//ccgNWPvN7Xp19qYDT2gH7yS8wcOqreINroshUZWP+0lUorV0T9w4KH7T9sTHW nYJR+AOHmvgdkXiYlQKQ7Mk/am2HZ/xq4KmsjetaQuBxjcHRfhyjvR1wmNvgvNjFyXTOVGWjyFSD wqoaFF1/s+CWVCTdzbtxZu8b8Vzix7NVBGadALDd6uNj8k+7rqLtD42wf3MUAKBUqfH9330e8/XE hMc1hhFrOzyuqxjt7Yg6rlTnIHdhFdRFZQkz7QfPH4fL0Y+Ri51wWs1Y+U//yvkaTmsHju58JErQ FBXZ8A24uSQkzUrnoELoAfAJ28mfqcpGzUP/HPfkP/rCTzHa133tNbcr5uuJDYVaE/QtJNqMn3Zd hbO3HY72k3A57Bjt6wz7XAnsJz9H6bLbWV+XavLPPKCDORBtaTg2DNnBy2ziFp4wGPRzLZbuBtYD SAFmjQCEhPcyTv54vf1kkx8A1AXzYr5mOuJy2NDS+HeshdPlsLO+NtXkV9YVoiMk1NqyPB9Yno/K ww7MfHaZySJ4wGDQYzaJwKwQALaTHwBu/OETCZn8AKD79vdjvm46wsZfkleux4Jv/wCly9ay9q9Q rfnl+UrY6slFunNNEYoX5yJ/j40puvIBg0E/MluWA7NCAOCv/sKY2GNYd0/cQT5tf2gknfwSsVFU WRP0oRCoC+Zhfs1q6OruRJ6umvW1XI5+/PX9V9B/+kjUMZlKBlfDQtrciisFmbjyaAVMzZfgOXiF 7lZPGAz6U7PBMZjyAmAw6BvBMqW3emN84b2W5t1RX9ZEQqyNp1xX4bSaMeUeg9NqDh53dH4T/P+8 cn0w+EddWAp1EfFThtyF1VCqc5I2bi4UVtfC/s1RKFVqlC5ZBV3dnSi8/hZO12BKCpKpZHBv1bNu yGKuL4HOoEHme710S4J3A8uBJk6DFRkpLQCB+H5W5brjZdp1FR0H3qY9Z9TaGfP1Iz3eo31dnJyK YVZJiDAQKFVq5JUbUVRVC3VRKXIXVnF6uiYKv2lfysm5FwrVWp9AUZGN4fu1nFOcrcZsaLfqodrV TScCrwUsgZQNFkrZbcBAo45T4FC807DuHiza/HRM9xs8fxxHXnqc8bzvv3GQ8Wk7am2Hs7cDjvZW So93MggVhaLqZZyfvEJjPfIx2t7dQXlcftd8dK4piuseLCoXjwK4LlXDhlNZAE6BZUGPUOLJ9Pvv x25nfCrr192DxSEi43LYMNrbAafVDEdHa5jZLkbyyvUorKpFWc0aUQsC3eRXlM7B+A8X8NaDUeP2 ovSVLrqtwsMWS/daXm6WZFJSAAwG/WsAnoj1/WVL6lDzcCPnOICOj3axyuUn1uNczXgxUnrTShRW 13LywicaR/sJHH3xMdJjyrpCdGws5f2eWtsE03Jgu8XS3cj7jRNMyglAoDnnF/FeJ9ZqPy3Pb06o yR6swgNEFdsI0hUhKhMevptrkEJYB1y983xCteaXqWSYemBhQusqshCB21Kt8nBKCUBgv/8CGNb9 MpUMM3eVQj48xdh4kmtu+qi1HUd3PhLzkz04wQuU/h/4a/INabN46R5MlAcjav9luH2YsU1gZmSK 1yYceeV6GL7zt1iwKq42CpzwuMbwReOWqExGRUU2+h/UJaX7suHYMGb22qgOp5w/INUEYB9YNO6Y eUAXLKzJtgOtYd09qN64ldWyIFYRUFRkw/xoBaf38I2uaxzKoSko+icwY5uIu6SY7lv1qPnJdp5G R8/x3z4dtcefKJOfDobeBvstlu6NyRxPPKSMAAS2/D5iOo/K86txe1G2z07bhDJTlQ39untZlamK VQT48Ezzja5r3F9Q1OKCr2eMc8eeRJdQA8ij+zLu0wrWjNX0cifdsmtTqpQWSwkBCJj+p8BQyVdx Qy7MD+por1U8NIX8fQO0paoJIWD6Uo9a23HsjW1wDV2mPS8SmUoG+bJ8jN2Sz5unmk+0tglknx0F zjpZ+xbWv/AfCXMSelxjOLhtQ9i6X7G+GOb6koTcjw0MLc17ASxNhaVAqggAo9dfnq+E/WdG1utA Xdc4spov05rA6sIS6G79Hq1FMO26imO//XnM23tEhyBRi8GXDsb23YlcCkQW9JCpZOj61Q0JuRcX GEKGUyJ9WPQCEEjxbWM6z7O1IiYPcMUZJxQf22kdZESFm6qNf0/pLGS7RUgH0Vh0elGu6LoMM7X2 UqrUWL9zP+8hxy5HPw4+8zfh9xJg3U8Fw1KgQuylxlNBAFoArKE7h48vBNtGFkWmJViw8gcoq709 yioYtbbj7Puv8BLsI1PJIKvQwLsoB5cW5ybFw80EU1RcbcMveN8VICvnFerkFRpd1zgUu3qoDos+ QEjUAsCmtJdMJcPAs1W8TBC2OwbANavA8N37o9KLB88fR/v+P/Aa9aeoyMbMohyMLM4VtJko3dq3 9KaVWP7Ey7zdi+zpDwCXf3V9QgXR+PUwBm5iL7qmd6x0PiVRxwaIXQAugMHxlwhPMJsdg1DUhSUw rLsP85fdFrZEcDlssJ9swUDbYd7EIBkBL0zonz5L+jrfJdHIPP+JXv8TAidTyZCxshD2NUWMQlA8 NIWcHWaqw70WS/d1fI+TL0QrAGye/oneVy8emkJ+82XWQgDQLxEGzx+Ho/0kRq2dGO3r5Lx7QCBT yTD6lFEwS4BKAAB+dwPI9v0T/W9uer8PntZr/95shcC0p4/ueyLaoqJiFoALYHj6x+r44wqbHQPS 9916B2Np7MHzx4P5/i6HHa5BO6scAsWyuTDfX85pPHzAsOZF3dNv8JZE9D+PrSMt5plMAQi7d+1c DN8xj1R4U9UKEKUAsHr6U0yA4qEpzD02zMp044quaxxZ+/s5x92rC0tQunQVdHV3sSpHNu26iv9+ fD3jeVefNSXdCqg87ID3wADl8bXPN/GSJ0C1/k/GDgDxHZo5Su4LohICBl+AKK0AmdADoKCR6YRh ktpuWtsE8l7tgvezK5i/owMVZ0Z5HZTVmA3zzyuRcZ/W38KbJa7BS7Ac+hBfbH8Ah5/fAuuRj+Fx jVGer1TnoPSmlYzXnXuGOpgpUWScvUp5TF0wj7ckIac1uhQ5AMyoEv+VvVKQic47StD1qxsgu1cL RWl4QpandQQ5O8wwfj0c9vrE6kK6y74WCGgTFaITgMDTnz7ib9ncKPXVuL1hmVo+tw8Z712E6Z1e 3sdoWZ6Pzl9WIeM+LWQcv5AjfRa0vbsDB7dtQNsfG+FykLcBK61dzXitDEtyU401bi/tMojPoqhk vQiEoGtFPsw/r4Rn63VQ1IbPX3e5Kux3qzE7SixCyAMgusAg0QkAWHxIZE//snfI67fN2Cf4GRUJ luX5GHi2Cor1xZyFYMo9DuufP8XBZ/4GZ99/Kep44fXM/f58PdRWRCIoYbA4Fqy6i7d7uQaplxlC YDVqYN5cjqvPmiD/TrG/wjBJ5KZ3FW2ex5NiswJEJQCBqD/aKj9kT3/j18Pw9JA/DWe+k9ha/WMq Ocz1JTELAQBYDn2IgdbwEgfqIi2UKjXt+3xuHyqSuAyQH6feDdF9q57XXADXIPseAMmEWB50/pLc l3NpcS7dd0B0VoCoBAAxPv0zPiPfTpPnK9G1IjnZYvEKQcf+P0a9VlRZw/g+5f9eQvHQFKd7xULx 0BS9+V93J6/3E5sFwJYxlRyyG2ijFCUBoIE2j1pRkR319Nd1jVHG8Sf66U9GrEIw0meJ8gfk6SoZ 3+exTyJnhxmmPX3Q2hK33Mk/Pkx5rKjyJt7rByarfXkklb/ugOmd3rg+y/HVtMuAvICfSxSIRgAC +f60lX4mSJ7+WcfIzdJkPv3JCBUC+V3zWe0aDJwMXwbo67cwLgMIPCdHMOfVLpje7EnIsmDmBLX5 X73hJ7zfTwiKh/xVkzznrvo/y/f7YrKubNospn/vxljHyDeiEQAwPP3l+UrSoB/feYov+zJx+FrG VHJ0rikK7hrQfTHsp74M+12pzsH6nftRVHkT6/t5esaR8Z7V/yRrvgSN2xvz2AkMx4YprSx1wTz+ n/4UOyMAkMGxWAkX8iKEk9juq/yU++cou5F2GbBQLFaAKAQg4BmlL6NUF73HWnFmlNTzL1PJYBdZ 1R3Av2tg/5kRCgpxcl6MTrJRqnOw8p/+FbUNv2BtDQDwP8kOXsG8587DtKcPuq7YS3/ROf+q736I 8f2j1nZO96MTgJkELnNkZ8kfJt7PrqD0la6ofX86xm5htD4bWF8sgYhCAOCf/LTmv50k4UcZWR03 QMbKQlGkz5IxppLDfH95ePXfAFPuccoAmAWrNmD9zv2ovrOBkxAA/uWBYldP0CrgYtbqusYpnX/q gnmM6b9E6TRL825OYxaC4fvLoagg/2y9w9PwfWCD6c1uVv4BFsuANYFdL0ERkwBQolg2l3RCz1CE XY4IVCeOE0byL9oIhQAAfmugatPWmIWAsApydphhesfKyleQ1UydsMT09A+tm9hx4G1Mu6ijCMXA lYJMmB/VY+aBBZST19PjwpxXu1gtCxiWAYAIdgQEF4CA+U/7GJleFP1BEg6bSBS10XECYmTCQF5i zH2F2vwliFcIAMBzzomM96wwPncOVfvspE+1ijPOuJ7+jvMng0lN024XunmwAuKtYsyGnsV56Pxl FWT3UvtsiGWBros6GMtN8r2NYKPQgUGCCwAYnv4ylYy0+kteJ/kXYWK5OJx/sULmB6CCDyHwuX2Y PjLof6r9ugOVhx0oHpqC1jYB+d4+yvexWfuXLlsbNibLob2itwJC6Vrh99nIv0O+nesdnoZi1wWY PrKTWgNWYzbTNnAemHxfCUb8AkARVCH7a7T56t8p4NbuS2xMublPED6EAPB/ob0HBpCzw4w5r3ZR VkXKK9ezKv2lLtLCsO6+4O98WQGJiHeoODMK43PnYPrIHuYjGVPJ0XlHYDuXQgg8RwdR9ha5b0BW wfh9THsBoP0mUQVV+EhMwRmSnYJUw2E+HfN7Q4Vg0X2PQ12QmECoxT98ivT1UWs7Ln61P+y1qk1b w8bR/kkTXA7KzjqskPOwtRmJsssFn9sHz9FBv48kIgaASQg89kmodnVHLQlmDIxivEHIZYCgAhAI /qFEppKRJlxobROkTyd3ij/9+UKpzoGhfgvWv/gxaht+gbxyPW/Xpor6m3ZdxbE3tuHMn16P2var ffC5sN87PvrXuMaQZeE/CSrSoUzEAHARAp/bh6z94TkMLnbfScGsAKEtgLV0B6nMfxWF40WMdfWp SMRTjIwFqzZg7fb3Uff0G6xqDDBBFfXX9odGuIYuY9rtwrE3toWt9QuvvwXVdzYEf7f+pTk+K4Bi +zceMrLIpwKTEBA1Awhnocc+GXaeTZvFJhxcMAFQCHXjALR/OJn3HwBktglEPv+p9m/FirLfDU8S 71d4/S0ovP4WuBw2XPzqgN8hx7GtWelNKymj/qZDfBeuocs4+sJPsXb7+8HXqjZthaOjNVgc9ezu VygrCBdV06dCe3rGYXq5E8hSBH8PRVE6B1iUi/7V7KtCmX9eCeNhB/DZZVLr0tM6gpzWEeTXzkX/ ptKw63atyAdW5EPXNYY5JAFXsgoNfDSdqMDwIEwkgpUEMxj01wGgLi4HoPulRaSvEyWbQpk0ZqeU A5Cuq8yGt/+SlDFc/Go/7K1fwv7NUVbn0xX8nHZdxdEXfhrWOj2yW9C06ypant8SLIZKdz2yeoBc IbpEc6karXF7UXrYQVkOjLgu24rBAGMHIQJByocLuQRYS3dQQZNSGczJDvlJpckvFhas2oDlT7yM 9S/8B6PTsPrOBtp8f6U6B8sffzFsB8L6l+Ywp6D/nJ1QF8zz/9Bcr8jEnArNhM/tw8xeG0x7qLcz I2Hj9fe5fcGyc2zCg6liPiJYy3qQPCJaAWDhPU1tbOSFRTNVya/3ry7SBp2Ga59vgn7dPWGOQ3XB POjrt7C6zsptb4WJQGvTbzB4/njw9zxdNda/+DGWP76T9loV3/1hDH8JOZ6TIzC92cMpoYetEPg+ sMH0cidtQNAQO9/UWtaD4xEhlwAXQFP7b/IpY0o59bhierOHNKqtyLQEK5/5vQAjimbadRXO3nao iss4VfuJbJ2uVKmxcttbnAuGOtpP4OKRT6KqA0VaB86LXXCY2xiXDIrSOeh/RB9TngibpYGCxD9A UPnrDtr+kwBGLZbupG8HCiIATOt/sXR/TSTG586RfpF0t96Bmocbkz4evolsnZ5Xrg9zCvKNxzWG M++/FNVHMJJ4+ykQQoCTI6QTWqaSAXeWRtWioBL8CJLeTFSoXQDaLCgW0VNJhUilZbv/PF2mgpfm KaMcmqJ8ihRW13IfoAjJ01Vj7fbdQcdgqHMwESjUGtQ83AjXoJ02mMpzcgRVKnnMvQWIpQHuKIHx 62FkfHY5TAh8bh/wgQ3GCS+6QlPSjWqAWQCuA3AhpoHFiCgFAFrK0spJJbJ1ONttuwzQf7B0NhfT FlgqoVTnYO3295OaClzz0POkDUVCmT4yCENZFunugK5rHMqhKUwXZDJ2nSK2/yrOjEL55WBYYVrZ WSfAvSbFUgAtXN8UD6IUAJZe04RiODaMmb02JCdcx0/Zkrqw5qKzBQMLByJfqIvKoLv1DsalwMxe G0xnrwLaOchw+zBjmwia6DPwTwyjSgb5snwMrS6kzTDtWZwHLM6D1jaB7MMO+M474RsIzwuYMGig YN4KTLoPQJQCwNJrmjA0bi8yDthpn9SJ4MbNP0vyHWcnVRv/HgOnvmJ0CnrOOYFz1Md9bh98RwaR c2QQ+TfkYmJ1Ia1VYNNmAZvj6te4Np43x4JQ24CU3n95vlLwaj5l++yUa/REUfPjZ2fl018I1EVl 0K+7l9dres45odjVA9ObPXGVVxMbSRcApjJIGaUqusNJgSFsk1cyVdlY8ehvoKu7O2n3TAcM9T+C urCE9+t6esaDQpDMpiyJQoglAP06R2AHoK5rnPbpX2RaEtyHdg0ORO1RM6XzZqqykbvACHVhKQqr a1FWezsUauF9HrMNhVqDFY/txNGdj8QdUkyGp2ccGT3jqMxXwrd+HqdwYxqu4+MiXBBCAGgtAG++ sOW8sixjlN5+w7p7sGjz00kdj0Ts5OqqsHLbWziz55UwYc5UZWP+0lVRAuy0dsDyv3sYHYiheIen gb02VB68DNQVYmRxbpTDsHhoyt9WnvlytE1xE0HSA4EMBn0jgOepjnu2VjBuvyQSusSN9S/856xa p7sctrAahLkLq6FU5wg4osTiaD+BubpqRovL0X4Cx3/3TMyWgzxfiYy5ARGY8MBjJw/7JsNi6c6I 6aYxIrolgNA7AFSoC0tm1eQ/8/5L6D70Ydhr6oJ5WP/ixwKNKPGwjbEoqr4Z63fux9EXfoqRPgvn +3iHpwH6sF/RIMQuAO0SQOgdgJks8vurC+cneSSJwZ+Suzlq8itVasYEnXRCodZg5TO/R9mSOqGH klCErggUBpv+eYlmUku+C5GpSn3TmCxnn6Dmx/+Pc7LObEeh1uCWf3gJ1Xc2JCtLczQZNwlF6IpA YQTXTQKiHJoiDQDKXWBM+lj4hG7y1zb8AqXLbqd8r8vRj4tf0S8NCq8PN6/ZrLVThapNW2Go/xGs X+3HYEcbXIN20qXB3HJD8G/OVOVEfWesf/4fpq7Hp3gcNitEJQBCUzw0BflXjqSW6iJj1NoOx/mT GGxvxYK6H9BOTrYo1TmYdkUnM9U2/IK2xLfL0c8YWw8A+KSJ9jDd5AgVD7HmQijUGujrt7Cqi0BF 4fU34+iLj/E4qvgRQgDWUB4RYP2vcXtRemwYGSeG4bFPCj75XQ4bWrY3BH8f7evkRQAAfzOP1qbf BH9nmvxAdMvyWIl8YvafPnLtFxLxUBeWBP0uRNxF4fU3Q11UlrLO2EwR7rCIywJIYhCQ4dgw5Gev wnPOySrhR1WcmC/d4PnjYYU21UVaVN/ZgPbApHANXcbFr/azasTBxIJVG2A9+l9wdH6DRfc9zuqa QnXycQ1eCprLwT38wGeiLixB6dJV0NXdhVxdlSDjiwUFswBIS4BEUjw0hYIvB+E9OexvAsHyfZmq bJTV8vMUJhg8fxzt+/8AR+c3qL6zAVWbtgaP6eu3wPp//x0sptH+8du8CADgL+vd33Y4qRl6fOMa vATLoQ9hOfQhikxLsPj+n6WEENC1PQ9A3Yc9QaSFAOi6xpHVfBmennFw3Z0tMi3Bisdf5tWh5XLY 8PWbzwRLZlkO7cWCVXcFy24p1TlY9MMnceytZ/3n82gFEOXB4yUs2IWi0zEriBr/HANmCBzm0/hi +wMwrLsH1Ru3prrj8UKybzirBUBrm0D2Pjs8PeOc1/ZFpiWo2vCThDil1EVaVN31EM7ufQOAv2de ZJ380mW3o/SmlcGS3XxaAXzgubuUtGkrZ+rDfy0emoLGNoFMyzh8f3Uy1dELYjn0IeynvsKKx3aK 1hoYPH+C6ZQLSRhGGLNWAIiQXq4Tv2xJHSq++8OEe6MN9Vsw0HY42ChQburKAAAgAElEQVTD/s3R KH9AzU8a4di2AdNuF69WAB9cSVC49pWCTH8s/eJcYGNpmPXGhGvwEr7Y/gAW3/d4XN56PnBaOzDl uorB8ycw7R7D6MVONp2fk+4DECIXoAUUOwGK9cUw18efwlm1z47pI4Osz89UZWPBt78H/Xc3J9XD 7HLY0NL4d8GlAFnhTPvJz4NLASFCdTs+2hV0SIZC1bQlUZj29MFzkv0SuWxJHWoebkzYksDR7n+a O3s7/NWTL3Zhyk38N6YcAkGqAs86C6B4aIr15FcXlqDq7ocEy8Un2mcTE2y0rxuW5t1hDrrQpYDY rIBkYr6/HCaAtQj0nz4C1ws/Rc1D/8xpSeBxjWEk0NyUmNxE2rfHNRZTbgBLkv70B2ahAGSyqOSj LixBzYPPiSLopGrTVthPfRmM0Os48DZ0q+4Oy8qr+UkjRgMttcTmC0gmXEVgpM+CL7Y/AN2td8Dw 3fuRq6uCo/0EnL0dcA3aMXqxM3huPG3ZeaJFiJuKSgAyeCjDZdNmwaiS0Rb1EMvkJ6h56J+DwT9+ h+BLYT31iJZaLdsbRGEFKCqES9fmKgIAYP3zp5xy/AXighA3FSIZ6ALVgRnbBNUhTlC1FSfwCBTc QkWerjqqffZowAwNPWfRfY8DABztrckcnugw318OxbKkL5cTTYsQNxWVAPAFVVtxAnvr4UQPgTNV m7aG9eM7+/4rUecY6reg+s4GFM2S5iHxMMtEYDTZHYEIRJUOjAl+IvF7FueSNnMkGDj1FS/34Zua h/45+P+Ozm/COusSVG3amlTzn8XWlWCY7y+HYn2xoGOQqWRQVGQz/jDQkoShkiKED4DS2xlLJBgV 8mX58FHsBky5x2E98rHoKvESSwFiV+DMn17H/GW3C1qma8otruVSJOb6EugMGsz5Ux/roKFIFKVz gKzAVFDJw3JSItu8DWmzYipaw9AbUJAdAEAYAUhKvPPQ6kLk0GwHXjz6X6ITAMD/hCfyAKbdLnQ3 7w7LE5CIxmrMBn5ZFUzwAtEGPCRE2ZufielAsU6vSp70ztMMgUwtSRpGFEIIwAW6g7qucV6Kgl4p yET+Dbn+7i8kOMyn4Wg/IardAILaB5/DkZf8Dr/2T5rC8gQkqLEszwf4Kc+dbASzAJLuA2Bydsjd /HXjm1hdSHu8Y/8feLsXnxRefwv06+4J/t72x+00Z0uIHYZOQqctlu6kZwESCOUE7KU6oOx383YT qzHbv76jgLACxEj1xp9CXTAPgN8haD/5ucAjukaGSCs3pyiCPf0B4QTgAuURG3+OQADwrqJv0SxW K0CpzkHtg88Ffz/7768JOJpwZmh2WCSiybJEl2ILIS0FoIXqwIydPwsA8K8L6aoNi9kKCF0KTLvH 4HLYkj4GEYTIpjwMEa5pKQCUax7v8DSKh6b4vVtdavoCAP9SQL/uHqzfuV9yBKYodBGuFkt3S/JG Eo1QAkCrerk8t1+2L8+nDQwSsxWgVOdg8eanRdWya7pM+A7OqcTMCOUDjdIXliwEEQAm1ZNb+BWA MZUcshS2AoSCShS9AndvSjS6rjEYnzsH49fDvFyPJkBJUPMfEDYUmFL9Zrr5b+c8fAv9/rDDfBrW I7O3L54EO3RdY1DsugCf2wffB7a4RYBhCzCtBYDyj/cOT0PLU2YgwZWCTMbkkY6P34aHpHlGusKi ht2sw2rUQHbvNV9LvCKgpPdntcR8YZ4QpQAAgLqpl0k9OTO+mn5L0DV4CZbmf+P1nqmMa3CA9HWx dnDmi64V+Zh5YEHQb+T7wAbTR/aYriUfphWACzFdlEeEFIAWuoPe4WkodvXAtKePNyGwabNoA4MA f+it09rBy/1SHWdIxZxQhO7gnAx6FufBvVUfFAHP0UGY3u/jfiGi7Hk0gqUAhyJkRSBW6x/PyREo To6gMl8J2Y25cC/KjStXwLuqCNhLv59+dOcjWPDt70Gp0iBvYRUU6hxR5gwkEpejP5H171ICmzYL mmerUPZWt79tXOsITADMm8tZX4NmB0Dw9T8goABYLN0jBoP+NIAlbM73Dk/De2QQiiOD0CNQlsqo xnSZClMFmayzu5zGbDBtqE25x2E59GHU63PLDVAXliJ3gRFKdQ5yF1YhU50j2jr08UC1A0C3nTob GVPJ0f+IHmXv9MLT4+IsAmLeAQCErwl4CiwFIBJPzzjQM44MAHMA6BHSrSYkpzs0DRSIL9lopM+C kT5LeGPLEEIbWgLXmlrGg8PcRvIaeXQe0YG3dOlqzF92W1wlzgcpyo7J5s+uGACtbYLx4TGmksP8 qB6m9/vgaR1hLQJi3wEAhBeAFgAP8HUx7/A0QCjuuWuvJ+uPDG1oCSQ/jJYw2R3m0ziz942onoNc cA3G5vRKJYqHpjDn1S6YaueyeqKbN5ejskAJ72dXWImAcmgKNF03LnAfMf8Ibc+1CHz/WU37J01o +2Oj0MMQLfl7/E49T+sIawdf5x0lwW1CT+sITC93QkNhVSr6xRsCTCCoAAS8oIKHQ0Yiz1fSJhCl EtY/f4ru5t2c3yfmWoC8MXFt4nIRga4V+fBsvQ4ylQwe+yTK3uomFQGaHADRZFgJvQQAWC4D1r/w n8E1rdPaAZejH6O9HXCY2+Jpx0QK0fiy4owTyrNOTjXoxUjHgXegW7WBU5us3AVG0iUMmx59qUL/ I3qUfWSHp9X/78vFwWc1aqDdqoe6qRce+ySKu8Ywtjgv7BzfAGVm64W4Bs4jYhCAfWAhAKEOrVxd FXJ1VZhfexsI/7vT2gHH+ROwn/oy7rW3IhC91bM4F1icC83GUhR3jUN51omZ7vGYi08KxZR7HO37 dmHR5qd5uV7x0JS/gWeKM6aSw7w50GgkVASGp9D/4ELGeAebNguanxlR3DWGnojJXzw0RdecRhQO QEAcAtDC5iSntYN2u40QBX39FnhcY+hv/RyXWr+k9NjTkTERbs6NqeQYC4gBAGjcXhTYJvyFHmyT gNsL34CbthuR0Fz8v/9B9catrK2ATBX1Zmlu1ziuLE99ASAwby6H0ZAN3wf++BBPjwtlb3Wj/xE9 owj4vxt5Ua9r6EPZJQEgCMQD7AdAW+zecf4E6/12hVoDXd3d0NXdDY9rDNav9sNyaG+Yhz4exlRy jBmzAZKApOKhKaiGyC0EojLMTJYck1p222lcgp50XePIsozBc/BK1LEp9zj6Wz9nXQk5d4GRUjzl lvFULb5JSdeKfFSoZZDvtcHn9gXX9mxEgAxlv5uuNb1oBCDp7cHJMBj0TwJ4le6cueUGrNnO3ZkV ClWr60gUFdkwP1oR172EhKoGfdmSOtzyDy+xuoaj/QSOvvgY5fHLv7o+JUOCmZYvWtsEVLu6g9ac onROTCJA0wdAkDbgVAi9DUiwj+mEkT4LXI7+uG5StWkrbnv+PWSqhGtumRRC6uGHwmU5VFR9M+3n VLYv9eIEjF8PI2eHmTa7z6bNwsCzVcGcEcIS4JqdSuMAFM3THxCJAAS2Axk9dwMnv4j7Xrm6Kqzc 9hbtOTT/eCmBN5/6Ccel8tH8pasoj3lOjsDUzM+SKhlobRPBNT5Tii8R/quo8Aupxz4J1S72IqC1 TaSEAxAQiQAEaGI6wXJoLy83ytVVQXfrHZTHxeLMqzgzShlkQoePxlzlkuNv+O79tMc9B6+g8tcd MBzjp3JOIhktUIZlgrIRAfOjeihq/da6z+1jLQJZNtoHiCQAFDQxneAavMRb7b4FdXfSHue9MClH tLYJZLx3kTLIhA663gp5C9knLjEJJeAPv57Za0Plrztgar4k+OdGRfCpzkEEAP8Ogewuf34HWxFg KGknCQAZge4o0e1wI7h45BNe7seU3kvlyU8GhCMK8Juf83d08FYhiWuC0OLNT7PymXiHp+E5eAU5 O8wwvdyJysMO3qs6xUusItC1pgiye7WQqWTwuX3I/veL9DeiEWCLpVsSABqamE6w/vnTWV+2a0ol g2zutVBkLuYnAMoiFJmqbM6pywq1Biu3vcXJceqxT8J7YABzXu3yWwZ7+lBxxhnTcoZvYhaBFfnB AiG+OurKUhq3l67L9eEYhpxQRCUAFkv3PgCjjOfN8rJdVwoy/V/SG64F43ARAapw3VjTkwnHaSy7 J97haXhOjiDjPSvmPXceppc7YWq+xHu5Nyq0tglUfhrurAyKQO213Tg2ImDTZmH0KSO6VlDHQBSn QApwKKISgACMPbC6D30w662AMZUc5gcXQrHyWjlzNiJQcYa8GzIAlNSujnk8uboqrN+5n9EnwITH PgnPwStQ7OqB8blzMO3pS5hlYPx6GKpd3fB+diUq0YcIA+YqAkwh0JkptP4HxCkATUwnEFFtiWQO vSc3aZg3lYZXqWUQAeVZagEoq709rrEo1BrUPNyIH7zxGRbf9zjUhSVxXc/n9sFzciQmRycTFWdG 4fvAFtzRocr2i0UE6Jih7wPYEvOFE4ToBCAQE/Ae03kdH7+d0HFE5gMISWj6KUAtAhq3F75z5AJQ tqSOUzYgHQq1Bvr6LVi/cz9ue/49GNbdE5cYeOyTKNvDb9/DnsV5Qcdd8D4JFgGG9b8oioBGIjoB CNDEdIJr8FJaNfKwGjVwb73mvPK5fVA3hZdSKPvSQRnDEI/5T0eurgqLNj8dtxh4zjl59wsQjrvQ 2g6e1hGY3oy2OEK3+4DYRIBh/d/C6WJJQpQCEKiWwugxnS2NPNiavzZtVjBCTaaSwdWwMOwaviOD pO/LVGXHbf6zIVIMdLfewclxmHWc/4AimzYL9p8Zg1F9wLVsv8jPndjuI+AqAgzr/xbWF0oiohSA AI1MJ8TbyIP2y0ldz51XdF3jmPfceVQedrA6n4hQc2/VhxWzpHv6z1+6ijfzny25uirUPNyI7/3u EGp+/CzmlhsY3+M5OZIQh2Awqi/EoUpVyYesKQhbEfD9ldr/AkkAuMHWCohnRyB3gTGm9/FJVvNl AID3wAAnj3jo5Kd7+gPMUY+JRld3N9Zs340Vj/6G0SIoodnFiBfCoRps9kEhAkRTkODS4RPmxKfi oSm6QjGjYgsAIhCtAARoZDqBqHbDOxM02dw84r3lmvOJ8IhzDaele/qrC0tE09Rkfu1tjPEEfHeG jiQ0oAegFoHg0qF2LmS1zLUP5tILV0vsI04sohYAtlaA5dCHvLfzovHm8opleT4y7gt/KuW92sXa Icb09K+6+yFexklgP/k5Oj7ahVFre0zvz9VVYcG3v0d5PBGdoSOhSvmNFAEiVsC8qZTxmhknaJcJ LbGPNrGIWgACNLI56cyeVxI8jMRhWR7urfa5ff6+iCzSbeme/nw7/0at7Wh791/Q/kkTWrY34OA/ 3o2LXzGmb0Qxv3Yt5THv8HRSEorGVHKYf14Z3P4jRCCWexcPTTE9MFpiGmQSEL0AsLUCHObTGGiN v15AKMlMZgmanDfkBl/zHLwC0ztWWr8A3dOfb+ffsTe2Ydp9zTnqGrqM1qbf4NjrP+d0HaYlSW6S woSBwPYfUec/YH1x/XdnMP97xbr+B1JAAAI0sDmp7Z1/4eQQVBfSm3bxtBGLBX/4ry58SXDOSVmR xnBsmLZ2QdXGv+d1fOtf/BjLH9kB/bp7oC6YF3zd/s1RztcqMlF3hOPDD2D8epj1RO5akY/Jp4zB bD9OiVdIXfMfSBEBCERQvc50HleHYGgfPzKECgcmlgSha1TVru6oOH/5V9Rbh2VL6uLqDUhF6bLb sXjz01j/4sdY/8J/YNF9j6O24Recr0ObmESTTsuG4qEp4BN74DNjzC0DEO4XIESA7b0YzH/GcndC khICEKARbDIFD33IumiIUk3fJ1jIcGAi6EdZ59+79rl9yHjPGvQLaG0TtF+8iu/+MOFjVBdpYajf ggWraAs6k1J4PfUyIF4HbP4+O3xuX+Azu8h6Hz/UL5AREjNAR8GX1Esw+Lf/JAHgg0DBkCfZnNv2 zq9YLQVymarj0CTW8AXd+n5MJUfHxlLMPKC7tiQ4eAWmN3uQHYgfIGNuuUE0W39UMI0vnrDg8fqS qHz/yJRgOsyby9F5B3M4s8bthfckrbiIevIDKSQAAGCxdDeBhUPQNXgJZ95nLn/NZCJ77JMJrXdn erMH83d0MEYB9izOxehTxmtLgp5xeCiSfgCgYv3f8jrOREHnB8iiz6qjJRgyHZLgQ5YSHC8lZ5xM 9SMlAUgADWCxFLD++VPGXQF1URljZFrGAXtCdgN0XePw9IzD5/b5owAZvP3BIiHL6EvKqwtLWDf/ EBpaP4AtvmUAsYcfmuDjaR2B6Z1e3sKNZQeprTCkgPkPpKAABByCjWzObXvnXxh7CTBVySEcQnzH qKsilheec06UvkK/BTWmkmPiFvqoNN2t1EE2YoPODzBj58cB27WmKCyV2nPuKi/1BwzHhpl6RIp+ 8gMpKAAAYLF0vwYWS4Ep9zja3t5Oe86Cuh8w3s/n9iWkaEUk3uFpqHZ1x7XsMNT/iMcRJRY6P4B3 eJrz561xe0kF1GrU8NLsIxSGpz/AorKVGEhJAQiwESyWAg7zaXR8RL01OL/2NnaZajR94GOhY2Mp 5HdFb0P63D7M7LWhKsbOO8nO+osXOj8AQ359GBq3F2VvdVPu4Qc9/AHvPtdmH6FUHnYwPf1Pizn4 J5SUFYDArkADm3PbP2mi9QesfOb3gohA55oiTIY490KZPjKY0Hp5YoFuCUbX3yCSsj198NgnGQN5 QjMCiXPZxgoAfqGZ+Wx2PP2BFBYAIFhFmDFACKD3ByjUGqzZvptVwUu+RSByvz/sXiT18uLxjouR 0mW3UR/kUJPBd+O1EGomEQitFMQ1VkDbfJnJ8z8a2K1KCVJaAADAYul+Eiz6Ck65x3H8jX+kjQ+o ebgRNT9+lvGefIsA2X5/6L24NAaJt4FqssnVVVHuxFCVNycjNJwXYBaBa7kX/mAw3wc2xn9PrW0C 0zS5FwFS5ukPzAIBCMDKHzDSZ0HbHxtpz9HV3c2qgzDfIgD49/sHnq2CoiL83sSXmU1wTLwC4HLY YGnejY6PdqHjo12wNO/GtOtqXNdkgm4ZwCUgyKbNiqqbqNrVTfl0J0qvy79TDNm9WsYW4Iwdgfzf wZQSgIyZmRmhx8ALBoN+KYA2VueuuweLNj9Ne47T2oGvf7cNrkH6CLJY+8czUXnYAe+BgajX5flK WgdU9Z0NqNq0Neb7dny0C+2fNIW9plSpUXXXQzDUb4n5unRYj3yMtnd3kB5TrC+GuZ5bkVHCIRga Uiy7V0vb0IMJU/MleA5eYTptu8XS3RjzTQRgtlgARM+1H7M699CHjBWFc3VVuK1xN6NzMBGWAEDt IGTwPsNhZqWBlOTqTFGvTbtdOLv3DbT94fmEWAO0YcExhGNH5voD8dX719om2Ez+3lSb/MAsEgAg GCrMzin47g7GSEGFWsNqhyARde0BegchFQ7z6bgqJWfSJEhZ/9KMoy/8NOZqQFSoi8ooP2OPfTJm cTVvLof8O8XB32MRAY3by8b0B1jmqYgNeWNjo9Bj4JUnnnji09/+9vUKAEuZzr1y9i8oWfQtzMmj bvYoU2aiwLAI/ccOwuuhfvr6rkyieGYGg0Z+9+GnlDIMVudgbmkW5OarmPEwL9k088uRx7EJKIG6 WIsMnwf679yHijUbofv295FbbsSY/QKm3eOYdA7jwuF9yPB5kLewCnLlNQtl1NqO3s8/RAZmoC7W Ut+EhDF7D4Z7zpH/PcVzMKxVxfT3DBk1KMxTYuac33KZOXcVhXlKDJWzu17Ff12C5xyj1XPYYun+ p5gGKDCzxgcQicGgPwWAOsokQKYqGyu3vcXYNddp7cAX2x9gvK9nawWsRm5NNE3Nl1itc4uHppD/ bi9juqy6sATrd3Iv1UXHtOsq2vf9Ht2HPgx7vajyJgCAa3AAriH//nheuR5rt7/P6fp0n6/ihlyY H9TFMOprEC3XiS08Nj4Bw7FhzOxlZdlViLHrDxtm1RIggrVguT14dOcjjEVFc3VVWHzf44w3nfMn bsE7xPrS9GYP4/uuFGTC/PNKxiWBa/AS70VSleocLN78NJY/sgNK1bUmG47Ob+Do/CY4+f33j3Ze MpGrq6LsKOQ5F39r8agdAoblgNY2gYwDrKIxt6fq5AdmsQAEIgXXgkcR0NdvoQ1dBfxOurIv2TX5 AIDss/7dS0/POGMyEAFVGHEo9pP81kckKF12u79L8LfqSY8rVWqs3PZWbNdeuor6GA9p2cE04RAR ICsCqnF7oW7qZQr4Afymf2PcAxOQWbsEIDAY9HPhr8vGy3LA5ejH4ca/w5Sbfn/66rMmxlbSgL8m QGTAi/yu+ehcQ+2XIKj8dQflrkCRaQlWPvN7xmvEw7TrKpy97RixmgEAc3Um5C6sZqy0RIXL0Y+D z/wN6TFF6RyYf14Z81gjMX1kx8TiHFgjfDZkW4gUjAJYmspPf2AWWwAEfFsC6qIy6Nfdy3jf/H3s zODh+7VRgT9s6gMAgG/9PMpjDjPjnxs3SnUOCq+/BYb6LTDUb0Hh9bfEPPkB/2dLZWF57JO8lgs3 byqNmvwAULbPzrYkWUOqT34gDQQA4F8EqjZtZeyAy7bb7ZWCTJgfrYBifXHY62zqA1iW50eFDofC tjaimKja8BPKYwz19+LGtKcPnpMjbE59PRWKfbAhLQQAiE0E6CYQm447WTR1+yIx15fAs7UibEJ7 h6cx59Uu2pJhspA+ApEMnk89ASiqvpnSCvCeHE5YdiSHyX84kH8yK0gbAQBiEIEXH6OMGNTV3c1s BfSMc4pltxqzSXMB6JYE04uoBcB5sYv1vcUElRXgc/sS0jyUw+Q/DX/eyawhrQQA8IuAxdK9FMB7 bM5ve3cHzlIUGK158DnG92dxNFv9razJlwRkVWyu0MQcxBsWLBRF1TejbEkd6TEWlXg4wWHyjwJY G3iIzBrSTgAILJbuBrAMG7Yc+hDHf/t0VIhtUfXNzGHC55wxOa/M9SWYfMp4rUU1rlWxCS0ZNqaS R1kMBFPu8ZRLDya4cfPPSF/3Dk/HVTI8lHSf/EAaCwAQrCXAKoGo//QRfNG4Jco5yKYEdz4HX0Ao ZP0CiZJhYdWCjGqKK6SmIxDw7whU39lAeoyLb4UMjdsL08udXCd/SpT44kpaCwAQTCCqAYt6Aq7B S/hi+wPobt4dfI2NL8AXRyQb0S8wMvCHqBaktU1guow6rt0Z2KNPRQz1PyKty8DVtxKK1jaB0le6 2G71zerJD0gCACCYSnwdWDgHAeDM3jdw9IWfBs1rplLcfDivyNKDiSWB8jj1k2z0Ymdc9xUShVpD GXMRixVgar6EOa92MaZUBzgNf6DPrJ38QBpEAnLFYNC/BuAJNudmqrKhX3cvFqy6mzKCjYCvSDaN 2+sPVmFnvgIANrz9l7jvKyQHt20gLczCNvHKcGwYsoOX2U58wD/5Z+WaPxJJAEgwGPQbATQByGNz vrqwhLFyEABMPmWETZsV3+ACGI4NI+OAnU28Olb+4+9E3yuQDqqKQYqKbJgfraB8XwwTHwDeCziI 0wJpCUBCIMprKVguCdhMfgDQHOevz2BkC3E6nL38ZgYmGyo/i6dnPKxlusbtRcUZJ0x7+mB87hxm 9tq4Tv6n0mnyA5IFwIjBoG8E8Dwf15LnK9H5y9gKdVChcXuhbb5MW61Wd+sdqHm4kdf7Jpvu5t04 s/eNqNdlKhlk81XAhCeetuK9ADbO9vU+GZIFwEAg3bMGLK0BOrzD07w3GiVKitOlBztT2BFIoFu1 gfR1n9vn75Yc++TfjzRw9lEhCQALAl+OtQDoGw2yILv5Mq9ZbQT25dTVbUb6LLzfL9ko1BpW3Zs4 MApgk8XSvTEdnH1USALAkkAIcSPitAY855zI2WGG6eVOVO3jr/X4mEpO6w9I1YCgUHjse/g6gOtm S0ZfPCiEHkCqEbAGlhoM+ifhb1POaqcgEo99ErBPYs6RQVTmKyG7MRdjt+THtUuQYdAAFKaws7cj ZXcCXI5+dOz7Vz5qHBwG0GixdLfEP6rZgSQAMWKxdL9mMOj3wd8JhnyByhLv8DS8RwbDxGBodSGr ikKheMqoxSPVAoI8rjH0t36OS61fov/0kXgv1wv/xG+Kf2SzC2kXgAcMBv1a+IWAsewYFxSlc5Bh 0MC9KJdVwEvx0BRydpCH/s4tN2DN9t2kx8SCy9GPgZNfYLCjjY9JD0gTnxFJAHjEYNA3wC8EMS0L 6JCpZJBVaDBjUGNSq6IUBLo6gWKLCHQ5+uG0dsDeehgOcxvreAoWSBOfJZIA8EygCOmTgR/ehSAU RUU2MrRZmDJkY0ybhSsFmTC9Y4XnHHnegdARgY72E3D2dmD0YiffE57gMIDXJOceeyQBSBDJFAIC mUqGjCw5pQWw+L7HoU9Qg89QXI5+uBz9GDx/Aq7BATgvdiZyK3IU/rDt12ZDkc5kIwlAggkRggYA C4Uci7qwBHPLK5G7wAgAyFtYBUVIFV91URnURWWU73daOzAV0hzU2duBaddVTLvHMHqxEx7XWDJj DvYD2CeZ+fEhCUASCfgIGgCsEXYkKct+APvgn/hpG7zDJ5IACIDBoL8OfqtgIwS2CkROL/xNXfYB aJEmPf9IAiAwgdRj4icpvgIRMwr/hG+Bf8KnZXx+MpEEQEQExGAt0scyIJ7wLQBOSRM++UgCIFIC y4S1IT+pLgi9AE4Fflrgn/CSSS8wkgCkCAFBWBr4WQt/DUMxikIvgAvwT/IR+Cd6i4DjkaBBEoAU JxCGfF3Ez1zwHJYcwuHAf0fgf5oH/yuZ8KmHJACznEAcwlKSQ5GvXwj8RCJN7FmMJAASEmmMVBBE QiKNkQRAQiKNkQRAQiKNkQRAQiKNkQRAQiKNkQRAQiKNkQRAQiKNkQRAQiKNkQRAQiKNkQRAQiKN kQRAQiKNkQRAQiKNkQRAQiKNkQRAQiKNkQRAQiKNkQRAQiKNkU7C0jcAAABHSURBVARAQiKNkQRA QiKNkQRAQiKNkQRAQiKNkQRAQiKNkQRAQiKNkQRAQiKNkQRAQiKNkQRAQiKNkQRAQiKNkQRAQiKN +f8K3a/Xg9qEewAAAABJRU5ErkJggg== "
       id="image2188" />
    <image
       y="38.754288"
       x="145.75301"
       width="67.73333"
       height="67.73333"
       preserveAspectRatio="none"
       xlink:href="data:image/png;base64,iVBORw0KGgoAAAANSUhEUgAAAQAAAAEACAYAAABccqhmAAAABHNCSVQICAgIfAhkiAAAIABJREFU eJztnXt4U3We/9/NpTRp2tIbpU0JNknTqiC0KIxDuSjD1JlRgX3UHWH2saPODo+XVWdc3HF+ruWZ HeYR7+Pow+yMWp9nkR10VxB31y6iRWFn5NKCMNCmTUtD0xRIb6FNeknS3x/JCbmca3KSc9Kc1/P0 0eacnPNtyPd9Pt/P93PJmJmZgYSERHoiE3oAEhISwiEJgIREGiMJgIREGiMJgIREGiMJgIREGiMJ gIREGiMJgIREGiMJgIREGiMJgIREGiMJgIREGiMJgIREGiMJgIREGiMJgIREGiMJgIREGiMJgIRE GiMJgIREGiMJgIREGiMJgIREGiMJgIREGiMJgIREGiMJgIREGiMJgIREGiMJgIREGiMJgIREGiMJ gIREGiMJgIREGiMJgIREGqMQegAS/GMw6JcCmBvx8nWBH4KWyPdZLN1Rr0nMbjKk5qCph8Ggvw7+ ybwW/olOTPglPN2iF8CFkJ9TAC5YLN2neLq+hEiQBEDkGAz6ufBP9KUh/80TcEiH4ReEUwBOSaKQ 2kgCIDJCJjzxw9dTPVGMwr+caAGwz2LpviDkYCS4IQmACAiY9BsDP2uEHU3c9ALYB6DFYuneJ/Rg JOiRBEAgQiZ9A8T/lI+VUfjFYJ8kBuJEEoAkEjDvG8DTpJepZJDNVwEqOaCdw+5NQ9P+HwAzI1Pw Dk/HOwy2SGIgQiQBSAIGg5540m+I9RqK0jnIMGjgKcvCdEEmrMZs3sancXtRYJuA3O2Fst8dFAlP zzhv94iAWCa8JvkMhEUSgAQR8rR/EsBCru9XlM4BFuViwqDhdbJzpXhoCqqhaWRZxgDbJDA8CY99 ks9bHAbQZLF0N/F5UQl2SALAM4G1fSOAB7i8T6aSQVahgXdRDi4tzsWYSp6I4fGGrmscc2xuZFhc mLG7+VhKjAJogmQVJBVJAHjCYNCvhf9pz8nMV9yQi+lb5qJncW4ihpU0ioemoLFNINMyjhnLWLxW wn74haCFn9FJUCEJQJwEJn4jOGzfKUrnwLuqKCWe9LGicXtR3DUO5VknZrrHY7UQTsMvBE38jk6C QBKAGOE68WUqGWQ35GJ8dRFs2qwEjkycaG0TUHeNIePEcCzWQS+uLQ9GeB9cGiMJAEe4Tnx5vhKo K4R9ef6sfdpzpXhoCvnNl+E754TP7ePy1lEAr0ESAt6QBIAlXJ178nwlfOvnwbI8P5HDSmk0bi/K vnTAd2QwFiHYB6BRchjGhyQADAS2854E8Dyb8xUV2ZheXZjyTr1korVNYM6rXbG+/T1IQhAzkgDQ EAjgeQ0s9vGlJ37smPb0wXMyboteEoIYkASAhMBTvwkst/Tk+Up0/rIqoWOajWjcXpS91c13YNF2 SD4C1kgCEEHgqd8Ejjn3kunPDa1tAuqm3kTlIkjOQpZIAhCA61OfCmK7z2vIhtOYjSsFmbyMbzZh ODaMjAN2ro6/WOiFf1nQlOgbpSqSACBYQ28fYojZZ4LI2MvQZsGXr8SkVgV3gTJthaFqnx3TRwYZ z1MXlqDq7ocAAD0H/4SRPks8tz0N4EkpsjCatBcAg0HfAODdZN9Xnq+E7MZcDK0uTAsxKB6aQv67 vazW+0WmJVjx+MtQqDXB1xztJ/DXPa/GKwTvwS8E0rIgQFoLgMGgbwKHpJ1MVTZyFxiRt6ASSpWG 9BznxS64Bu2cvqiKG3IxsbpQ0Ky/RFJxxgn53j5WJr/u1jtQ83Aj5XHrkY/R8fHbcA1einU4o/Av C16L9QKzibQUgMB6vwUsi3IUmZagasNPUFR9M6f7DLR+AXvrYQyc+gpTbubc+kQ5ErWBXH8A13L+ Q5gwXBMzPpcnGrcXZXts8JxzsjqfafKH0vHRLnQf+oDV50rBYQAN6b5tmHYCwGW9n6nKRs2D/w/z a2+L654e1xj6Wz/HX//9dVZfWK7hw0TO/hybGxkTXqDL5b9vnAU9FBUBi8SoxkyWHJNaFbwqOatc Bq6Ovuo7G1C1aSun8XlcYzjz/kuw/vlTTu8LIe2tgbQSgMDkbwGLLT6ydWi8eFxjsDT/G9o/aWL9 HkVFNmBURx/gaZLHijxfiYy5mVHlyDLcPvj+6mS9vacuLEHNg89xtq5C4cE/kLbWQNoIAJf9/Vie RlxwOfrR9vZ2OMynE3aPVKD6zgYY6n/Em8h2N+9Gx4F3Yl0WjMIvAmlVrzAtBICtpz9TlY0bf/gE dHV3J35QiPsLm7IUmZag5qHnoS4q4/3aPIjr6xZL95N8jknMzHoB4DL5V257C7m65Ib0EsuCOB1a AIC55QYo1JqoXQrX4AAc5rZ4POe8EKszNRYGWr9A2zv/EutnehrA2nTYLpzVAsB28qsLS7DisZ1J n/yROK0dGLF2wH2ln/FcVXFZ8AnKdkI5rR2wHjkA+6mvkiYGmapsLPj296D/7uaEPPHpiNMaGIVf BGZ167NZKwBsJ//ccgNWPvN7Xp19qYDT2gH7yS8wcOqreINroshUZWP+0lUorV0T9w4KH7T9sTHW nYJR+AOHmvgdkXiYlQKQ7Mk/am2HZ/xq4KmsjetaQuBxjcHRfhyjvR1wmNvgvNjFyXTOVGWjyFSD wqoaFF1/s+CWVCTdzbtxZu8b8Vzix7NVBGadALDd6uNj8k+7rqLtD42wf3MUAKBUqfH9330e8/XE hMc1hhFrOzyuqxjt7Yg6rlTnIHdhFdRFZQkz7QfPH4fL0Y+Ri51wWs1Y+U//yvkaTmsHju58JErQ FBXZ8A24uSQkzUrnoELoAfAJ28mfqcpGzUP/HPfkP/rCTzHa133tNbcr5uuJDYVaE/QtJNqMn3Zd hbO3HY72k3A57Bjt6wz7XAnsJz9H6bLbWV+XavLPPKCDORBtaTg2DNnBy2ziFp4wGPRzLZbuBtYD SAFmjQCEhPcyTv54vf1kkx8A1AXzYr5mOuJy2NDS+HeshdPlsLO+NtXkV9YVoiMk1NqyPB9Yno/K ww7MfHaZySJ4wGDQYzaJwKwQALaTHwBu/OETCZn8AKD79vdjvm46wsZfkleux4Jv/wCly9ay9q9Q rfnl+UrY6slFunNNEYoX5yJ/j40puvIBg0E/MluWA7NCAOCv/sKY2GNYd0/cQT5tf2gknfwSsVFU WRP0oRCoC+Zhfs1q6OruRJ6umvW1XI5+/PX9V9B/+kjUMZlKBlfDQtrciisFmbjyaAVMzZfgOXiF 7lZPGAz6U7PBMZjyAmAw6BvBMqW3emN84b2W5t1RX9ZEQqyNp1xX4bSaMeUeg9NqDh53dH4T/P+8 cn0w+EddWAp1EfFThtyF1VCqc5I2bi4UVtfC/s1RKFVqlC5ZBV3dnSi8/hZO12BKCpKpZHBv1bNu yGKuL4HOoEHme710S4J3A8uBJk6DFRkpLQCB+H5W5brjZdp1FR0H3qY9Z9TaGfP1Iz3eo31dnJyK YVZJiDAQKFVq5JUbUVRVC3VRKXIXVnF6uiYKv2lfysm5FwrVWp9AUZGN4fu1nFOcrcZsaLfqodrV TScCrwUsgZQNFkrZbcBAo45T4FC807DuHiza/HRM9xs8fxxHXnqc8bzvv3GQ8Wk7am2Hs7cDjvZW So93MggVhaLqZZyfvEJjPfIx2t7dQXlcftd8dK4piuseLCoXjwK4LlXDhlNZAE6BZUGPUOLJ9Pvv x25nfCrr192DxSEi43LYMNrbAafVDEdHa5jZLkbyyvUorKpFWc0aUQsC3eRXlM7B+A8X8NaDUeP2 ovSVLrqtwsMWS/daXm6WZFJSAAwG/WsAnoj1/WVL6lDzcCPnOICOj3axyuUn1uNczXgxUnrTShRW 13LywicaR/sJHH3xMdJjyrpCdGws5f2eWtsE03Jgu8XS3cj7jRNMyglAoDnnF/FeJ9ZqPy3Pb06o yR6swgNEFdsI0hUhKhMevptrkEJYB1y983xCteaXqWSYemBhQusqshCB21Kt8nBKCUBgv/8CGNb9 MpUMM3eVQj48xdh4kmtu+qi1HUd3PhLzkz04wQuU/h/4a/INabN46R5MlAcjav9luH2YsU1gZmSK 1yYceeV6GL7zt1iwKq42CpzwuMbwReOWqExGRUU2+h/UJaX7suHYMGb22qgOp5w/INUEYB9YNO6Y eUAXLKzJtgOtYd09qN64ldWyIFYRUFRkw/xoBaf38I2uaxzKoSko+icwY5uIu6SY7lv1qPnJdp5G R8/x3z4dtcefKJOfDobeBvstlu6NyRxPPKSMAAS2/D5iOo/K86txe1G2z07bhDJTlQ39untZlamK VQT48Ezzja5r3F9Q1OKCr2eMc8eeRJdQA8ij+zLu0wrWjNX0cifdsmtTqpQWSwkBCJj+p8BQyVdx Qy7MD+por1U8NIX8fQO0paoJIWD6Uo9a23HsjW1wDV2mPS8SmUoG+bJ8jN2Sz5unmk+0tglknx0F zjpZ+xbWv/AfCXMSelxjOLhtQ9i6X7G+GOb6koTcjw0MLc17ASxNhaVAqggAo9dfnq+E/WdG1utA Xdc4spov05rA6sIS6G79Hq1FMO26imO//XnM23tEhyBRi8GXDsb23YlcCkQW9JCpZOj61Q0JuRcX GEKGUyJ9WPQCEEjxbWM6z7O1IiYPcMUZJxQf22kdZESFm6qNf0/pLGS7RUgH0Vh0elGu6LoMM7X2 UqrUWL9zP+8hxy5HPw4+8zfh9xJg3U8Fw1KgQuylxlNBAFoArKE7h48vBNtGFkWmJViw8gcoq709 yioYtbbj7Puv8BLsI1PJIKvQwLsoB5cW5ybFw80EU1RcbcMveN8VICvnFerkFRpd1zgUu3qoDos+ QEjUAsCmtJdMJcPAs1W8TBC2OwbANavA8N37o9KLB88fR/v+P/Aa9aeoyMbMohyMLM4VtJko3dq3 9KaVWP7Ey7zdi+zpDwCXf3V9QgXR+PUwBm5iL7qmd6x0PiVRxwaIXQAugMHxlwhPMJsdg1DUhSUw rLsP85fdFrZEcDlssJ9swUDbYd7EIBkBL0zonz5L+jrfJdHIPP+JXv8TAidTyZCxshD2NUWMQlA8 NIWcHWaqw70WS/d1fI+TL0QrAGye/oneVy8emkJ+82XWQgDQLxEGzx+Ho/0kRq2dGO3r5Lx7QCBT yTD6lFEwS4BKAAB+dwPI9v0T/W9uer8PntZr/95shcC0p4/ueyLaoqJiFoALYHj6x+r44wqbHQPS 9916B2Np7MHzx4P5/i6HHa5BO6scAsWyuTDfX85pPHzAsOZF3dNv8JZE9D+PrSMt5plMAQi7d+1c DN8xj1R4U9UKEKUAsHr6U0yA4qEpzD02zMp044quaxxZ+/s5x92rC0tQunQVdHV3sSpHNu26iv9+ fD3jeVefNSXdCqg87ID3wADl8bXPN/GSJ0C1/k/GDgDxHZo5Su4LohICBl+AKK0AmdADoKCR6YRh ktpuWtsE8l7tgvezK5i/owMVZ0Z5HZTVmA3zzyuRcZ/W38KbJa7BS7Ac+hBfbH8Ah5/fAuuRj+Fx jVGer1TnoPSmlYzXnXuGOpgpUWScvUp5TF0wj7ckIac1uhQ5AMyoEv+VvVKQic47StD1qxsgu1cL RWl4QpandQQ5O8wwfj0c9vrE6kK6y74WCGgTFaITgMDTnz7ib9ncKPXVuL1hmVo+tw8Z712E6Z1e 3sdoWZ6Pzl9WIeM+LWQcv5AjfRa0vbsDB7dtQNsfG+FykLcBK61dzXitDEtyU401bi/tMojPoqhk vQiEoGtFPsw/r4Rn63VQ1IbPX3e5Kux3qzE7SixCyAMgusAg0QkAWHxIZE//snfI67fN2Cf4GRUJ luX5GHi2Cor1xZyFYMo9DuufP8XBZ/4GZ99/Kep44fXM/f58PdRWRCIoYbA4Fqy6i7d7uQaplxlC YDVqYN5cjqvPmiD/TrG/wjBJ5KZ3FW2ex5NiswJEJQCBqD/aKj9kT3/j18Pw9JA/DWe+k9ha/WMq Ocz1JTELAQBYDn2IgdbwEgfqIi2UKjXt+3xuHyqSuAyQH6feDdF9q57XXADXIPseAMmEWB50/pLc l3NpcS7dd0B0VoCoBAAxPv0zPiPfTpPnK9G1IjnZYvEKQcf+P0a9VlRZw/g+5f9eQvHQFKd7xULx 0BS9+V93J6/3E5sFwJYxlRyyG2ijFCUBoIE2j1pRkR319Nd1jVHG8Sf66U9GrEIw0meJ8gfk6SoZ 3+exTyJnhxmmPX3Q2hK33Mk/Pkx5rKjyJt7rByarfXkklb/ugOmd3rg+y/HVtMuAvICfSxSIRgAC +f60lX4mSJ7+WcfIzdJkPv3JCBUC+V3zWe0aDJwMXwbo67cwLgMIPCdHMOfVLpje7EnIsmDmBLX5 X73hJ7zfTwiKh/xVkzznrvo/y/f7YrKubNospn/vxljHyDeiEQAwPP3l+UrSoB/feYov+zJx+FrG VHJ0rikK7hrQfTHsp74M+12pzsH6nftRVHkT6/t5esaR8Z7V/yRrvgSN2xvz2AkMx4YprSx1wTz+ n/4UOyMAkMGxWAkX8iKEk9juq/yU++cou5F2GbBQLFaAKAQg4BmlL6NUF73HWnFmlNTzL1PJYBdZ 1R3Av2tg/5kRCgpxcl6MTrJRqnOw8p/+FbUNv2BtDQDwP8kOXsG8587DtKcPuq7YS3/ROf+q736I 8f2j1nZO96MTgJkELnNkZ8kfJt7PrqD0la6ofX86xm5htD4bWF8sgYhCAOCf/LTmv50k4UcZWR03 QMbKQlGkz5IxppLDfH95ePXfAFPuccoAmAWrNmD9zv2ovrOBkxAA/uWBYldP0CrgYtbqusYpnX/q gnmM6b9E6TRL825OYxaC4fvLoagg/2y9w9PwfWCD6c1uVv4BFsuANYFdL0ERkwBQolg2l3RCz1CE XY4IVCeOE0byL9oIhQAAfmugatPWmIWAsApydphhesfKyleQ1UydsMT09A+tm9hx4G1Mu6ijCMXA lYJMmB/VY+aBBZST19PjwpxXu1gtCxiWAYAIdgQEF4CA+U/7GJleFP1BEg6bSBS10XECYmTCQF5i zH2F2vwliFcIAMBzzomM96wwPncOVfvspE+1ijPOuJ7+jvMng0lN024XunmwAuKtYsyGnsV56Pxl FWT3UvtsiGWBros6GMtN8r2NYKPQgUGCCwAYnv4ylYy0+kteJ/kXYWK5OJx/sULmB6CCDyHwuX2Y PjLof6r9ugOVhx0oHpqC1jYB+d4+yvexWfuXLlsbNibLob2itwJC6Vrh99nIv0O+nesdnoZi1wWY PrKTWgNWYzbTNnAemHxfCUb8AkARVCH7a7T56t8p4NbuS2xMublPED6EAPB/ob0HBpCzw4w5r3ZR VkXKK9ezKv2lLtLCsO6+4O98WQGJiHeoODMK43PnYPrIHuYjGVPJ0XlHYDuXQgg8RwdR9ha5b0BW wfh9THsBoP0mUQVV+EhMwRmSnYJUw2E+HfN7Q4Vg0X2PQ12QmECoxT98ivT1UWs7Ln61P+y1qk1b w8bR/kkTXA7KzjqskPOwtRmJsssFn9sHz9FBv48kIgaASQg89kmodnVHLQlmDIxivEHIZYCgAhAI /qFEppKRJlxobROkTyd3ij/9+UKpzoGhfgvWv/gxaht+gbxyPW/Xpor6m3ZdxbE3tuHMn16P2var ffC5sN87PvrXuMaQZeE/CSrSoUzEAHARAp/bh6z94TkMLnbfScGsAKEtgLV0B6nMfxWF40WMdfWp SMRTjIwFqzZg7fb3Uff0G6xqDDBBFfXX9odGuIYuY9rtwrE3toWt9QuvvwXVdzYEf7f+pTk+K4Bi +zceMrLIpwKTEBA1Awhnocc+GXaeTZvFJhxcMAFQCHXjALR/OJn3HwBktglEPv+p9m/FirLfDU8S 71d4/S0ovP4WuBw2XPzqgN8hx7GtWelNKymj/qZDfBeuocs4+sJPsXb7+8HXqjZthaOjNVgc9ezu VygrCBdV06dCe3rGYXq5E8hSBH8PRVE6B1iUi/7V7KtCmX9eCeNhB/DZZVLr0tM6gpzWEeTXzkX/ ptKw63atyAdW5EPXNYY5JAFXsgoNfDSdqMDwIEwkgpUEMxj01wGgLi4HoPulRaSvEyWbQpk0ZqeU A5Cuq8yGt/+SlDFc/Go/7K1fwv7NUVbn0xX8nHZdxdEXfhrWOj2yW9C06ypant8SLIZKdz2yeoBc IbpEc6karXF7UXrYQVkOjLgu24rBAGMHIQJByocLuQRYS3dQQZNSGczJDvlJpckvFhas2oDlT7yM 9S/8B6PTsPrOBtp8f6U6B8sffzFsB8L6l+Ywp6D/nJ1QF8zz/9Bcr8jEnArNhM/tw8xeG0x7qLcz I2Hj9fe5fcGyc2zCg6liPiJYy3qQPCJaAWDhPU1tbOSFRTNVya/3ry7SBp2Ga59vgn7dPWGOQ3XB POjrt7C6zsptb4WJQGvTbzB4/njw9zxdNda/+DGWP76T9loV3/1hDH8JOZ6TIzC92cMpoYetEPg+ sMH0cidtQNAQO9/UWtaD4xEhlwAXQFP7b/IpY0o59bhierOHNKqtyLQEK5/5vQAjimbadRXO3nao iss4VfuJbJ2uVKmxcttbnAuGOtpP4OKRT6KqA0VaB86LXXCY2xiXDIrSOeh/RB9TngibpYGCxD9A UPnrDtr+kwBGLZbupG8HCiIATOt/sXR/TSTG586RfpF0t96Bmocbkz4evolsnZ5Xrg9zCvKNxzWG M++/FNVHMJJ4+ykQQoCTI6QTWqaSAXeWRtWioBL8CJLeTFSoXQDaLCgW0VNJhUilZbv/PF2mgpfm KaMcmqJ8ihRW13IfoAjJ01Vj7fbdQcdgqHMwESjUGtQ83AjXoJ02mMpzcgRVKnnMvQWIpQHuKIHx 62FkfHY5TAh8bh/wgQ3GCS+6QlPSjWqAWQCuA3AhpoHFiCgFAFrK0spJJbJ1ONttuwzQf7B0NhfT FlgqoVTnYO3295OaClzz0POkDUVCmT4yCENZFunugK5rHMqhKUwXZDJ2nSK2/yrOjEL55WBYYVrZ WSfAvSbFUgAtXN8UD6IUAJZe04RiODaMmb02JCdcx0/Zkrqw5qKzBQMLByJfqIvKoLv1DsalwMxe G0xnrwLaOchw+zBjmwia6DPwTwyjSgb5snwMrS6kzTDtWZwHLM6D1jaB7MMO+M474RsIzwuYMGig YN4KTLoPQJQCwNJrmjA0bi8yDthpn9SJ4MbNP0vyHWcnVRv/HgOnvmJ0CnrOOYFz1Md9bh98RwaR c2QQ+TfkYmJ1Ia1VYNNmAZvj6te4Np43x4JQ24CU3n95vlLwaj5l++yUa/REUfPjZ2fl018I1EVl 0K+7l9dres45odjVA9ObPXGVVxMbSRcApjJIGaUqusNJgSFsk1cyVdlY8ehvoKu7O2n3TAcM9T+C urCE9+t6esaDQpDMpiyJQoglAP06R2AHoK5rnPbpX2RaEtyHdg0ORO1RM6XzZqqykbvACHVhKQqr a1FWezsUauF9HrMNhVqDFY/txNGdj8QdUkyGp2ccGT3jqMxXwrd+HqdwYxqu4+MiXBBCAGgtAG++ sOW8sixjlN5+w7p7sGjz00kdj0Ts5OqqsHLbWziz55UwYc5UZWP+0lVRAuy0dsDyv3sYHYiheIen gb02VB68DNQVYmRxbpTDsHhoyt9WnvlytE1xE0HSA4EMBn0jgOepjnu2VjBuvyQSusSN9S/856xa p7sctrAahLkLq6FU5wg4osTiaD+BubpqRovL0X4Cx3/3TMyWgzxfiYy5ARGY8MBjJw/7JsNi6c6I 6aYxIrolgNA7AFSoC0tm1eQ/8/5L6D70Ydhr6oJ5WP/ixwKNKPGwjbEoqr4Z63fux9EXfoqRPgvn +3iHpwH6sF/RIMQuAO0SQOgdgJks8vurC+cneSSJwZ+Suzlq8itVasYEnXRCodZg5TO/R9mSOqGH klCErggUBpv+eYlmUku+C5GpSn3TmCxnn6Dmx/+Pc7LObEeh1uCWf3gJ1Xc2JCtLczQZNwlF6IpA YQTXTQKiHJoiDQDKXWBM+lj4hG7y1zb8AqXLbqd8r8vRj4tf0S8NCq8PN6/ZrLVThapNW2Go/xGs X+3HYEcbXIN20qXB3HJD8G/OVOVEfWesf/4fpq7Hp3gcNitEJQBCUzw0BflXjqSW6iJj1NoOx/mT GGxvxYK6H9BOTrYo1TmYdkUnM9U2/IK2xLfL0c8YWw8A+KSJ9jDd5AgVD7HmQijUGujrt7Cqi0BF 4fU34+iLj/E4qvgRQgDWUB4RYP2vcXtRemwYGSeG4bFPCj75XQ4bWrY3BH8f7evkRQAAfzOP1qbf BH9nmvxAdMvyWIl8YvafPnLtFxLxUBeWBP0uRNxF4fU3Q11UlrLO2EwR7rCIywJIYhCQ4dgw5Gev wnPOySrhR1WcmC/d4PnjYYU21UVaVN/ZgPbApHANXcbFr/azasTBxIJVG2A9+l9wdH6DRfc9zuqa QnXycQ1eCprLwT38wGeiLixB6dJV0NXdhVxdlSDjiwUFswBIS4BEUjw0hYIvB+E9OexvAsHyfZmq bJTV8vMUJhg8fxzt+/8AR+c3qL6zAVWbtgaP6eu3wPp//x0sptH+8du8CADgL+vd33Y4qRl6fOMa vATLoQ9hOfQhikxLsPj+n6WEENC1PQ9A3Yc9QaSFAOi6xpHVfBmennFw3Z0tMi3Bisdf5tWh5XLY 8PWbzwRLZlkO7cWCVXcFy24p1TlY9MMnceytZ/3n82gFEOXB4yUs2IWi0zEriBr/HANmCBzm0/hi +wMwrLsH1Ru3prrj8UKybzirBUBrm0D2Pjs8PeOc1/ZFpiWo2vCThDil1EVaVN31EM7ufQOAv2de ZJ380mW3o/SmlcGS3XxaAXzgubuUtGkrZ+rDfy0emoLGNoFMyzh8f3Uy1dELYjn0IeynvsKKx3aK 1hoYPH+C6ZQLSRhGGLNWAIiQXq4Tv2xJHSq++8OEe6MN9Vsw0HY42ChQburKAAAgAElEQVTD/s3R KH9AzU8a4di2AdNuF69WAB9cSVC49pWCTH8s/eJcYGNpmPXGhGvwEr7Y/gAW3/d4XN56PnBaOzDl uorB8ycw7R7D6MVONp2fk+4DECIXoAUUOwGK9cUw18efwlm1z47pI4Osz89UZWPBt78H/Xc3J9XD 7HLY0NL4d8GlAFnhTPvJz4NLASFCdTs+2hV0SIZC1bQlUZj29MFzkv0SuWxJHWoebkzYksDR7n+a O3s7/NWTL3Zhyk38N6YcAkGqAs86C6B4aIr15FcXlqDq7ocEy8Un2mcTE2y0rxuW5t1hDrrQpYDY rIBkYr6/HCaAtQj0nz4C1ws/Rc1D/8xpSeBxjWEk0NyUmNxE2rfHNRZTbgBLkv70B2ahAGSyqOSj LixBzYPPiSLopGrTVthPfRmM0Os48DZ0q+4Oy8qr+UkjRgMttcTmC0gmXEVgpM+CL7Y/AN2td8Dw 3fuRq6uCo/0EnL0dcA3aMXqxM3huPG3ZeaJFiJuKSgAyeCjDZdNmwaiS0Rb1EMvkJ6h56J+DwT9+ h+BLYT31iJZaLdsbRGEFKCqES9fmKgIAYP3zp5xy/AXighA3FSIZ6ALVgRnbBNUhTlC1FSfwCBTc QkWerjqqffZowAwNPWfRfY8DABztrckcnugw318OxbKkL5cTTYsQNxWVAPAFVVtxAnvr4UQPgTNV m7aG9eM7+/4rUecY6reg+s4GFM2S5iHxMMtEYDTZHYEIRJUOjAl+IvF7FueSNnMkGDj1FS/34Zua h/45+P+Ozm/COusSVG3amlTzn8XWlWCY7y+HYn2xoGOQqWRQVGQz/jDQkoShkiKED4DS2xlLJBgV 8mX58FHsBky5x2E98rHoKvESSwFiV+DMn17H/GW3C1qma8otruVSJOb6EugMGsz5Ux/roKFIFKVz gKzAVFDJw3JSItu8DWmzYipaw9AbUJAdAEAYAUhKvPPQ6kLk0GwHXjz6X6ITAMD/hCfyAKbdLnQ3 7w7LE5CIxmrMBn5ZFUzwAtEGPCRE2ZufielAsU6vSp70ztMMgUwtSRpGFEIIwAW6g7qucV6Kgl4p yET+Dbn+7i8kOMyn4Wg/IardAILaB5/DkZf8Dr/2T5rC8gQkqLEszwf4Kc+dbASzAJLuA2Bydsjd /HXjm1hdSHu8Y/8feLsXnxRefwv06+4J/t72x+00Z0uIHYZOQqctlu6kZwESCOUE7KU6oOx383YT qzHbv76jgLACxEj1xp9CXTAPgN8haD/5ucAjukaGSCs3pyiCPf0B4QTgAuURG3+OQADwrqJv0SxW K0CpzkHtg88Ffz/7768JOJpwZmh2WCSiybJEl2ILIS0FoIXqwIydPwsA8K8L6aoNi9kKCF0KTLvH 4HLYkj4GEYTIpjwMEa5pKQCUax7v8DSKh6b4vVtdavoCAP9SQL/uHqzfuV9yBKYodBGuFkt3S/JG Eo1QAkCrerk8t1+2L8+nDQwSsxWgVOdg8eanRdWya7pM+A7OqcTMCOUDjdIXliwEEQAm1ZNb+BWA MZUcshS2AoSCShS9AndvSjS6rjEYnzsH49fDvFyPJkBJUPMfEDYUmFL9Zrr5b+c8fAv9/rDDfBrW I7O3L54EO3RdY1DsugCf2wffB7a4RYBhCzCtBYDyj/cOT0PLU2YgwZWCTMbkkY6P34aHpHlGusKi ht2sw2rUQHbvNV9LvCKgpPdntcR8YZ4QpQAAgLqpl0k9OTO+mn5L0DV4CZbmf+P1nqmMa3CA9HWx dnDmi64V+Zh5YEHQb+T7wAbTR/aYriUfphWACzFdlEeEFIAWuoPe4WkodvXAtKePNyGwabNoA4MA f+it09rBy/1SHWdIxZxQhO7gnAx6FufBvVUfFAHP0UGY3u/jfiGi7Hk0gqUAhyJkRSBW6x/PyREo To6gMl8J2Y25cC/KjStXwLuqCNhLv59+dOcjWPDt70Gp0iBvYRUU6hxR5gwkEpejP5H171ICmzYL mmerUPZWt79tXOsITADMm8tZX4NmB0Dw9T8goABYLN0jBoP+NIAlbM73Dk/De2QQiiOD0CNQlsqo xnSZClMFmayzu5zGbDBtqE25x2E59GHU63PLDVAXliJ3gRFKdQ5yF1YhU50j2jr08UC1A0C3nTob GVPJ0f+IHmXv9MLT4+IsAmLeAQCErwl4CiwFIBJPzzjQM44MAHMA6BHSrSYkpzs0DRSIL9lopM+C kT5LeGPLEEIbWgLXmlrGg8PcRvIaeXQe0YG3dOlqzF92W1wlzgcpyo7J5s+uGACtbYLx4TGmksP8 qB6m9/vgaR1hLQJi3wEAhBeAFgAP8HUx7/A0QCjuuWuvJ+uPDG1oCSQ/jJYw2R3m0ziz942onoNc cA3G5vRKJYqHpjDn1S6YaueyeqKbN5ejskAJ72dXWImAcmgKNF03LnAfMf8Ibc+1CHz/WU37J01o +2Oj0MMQLfl7/E49T+sIawdf5x0lwW1CT+sITC93QkNhVSr6xRsCTCCoAAS8oIKHQ0Yiz1fSJhCl EtY/f4ru5t2c3yfmWoC8MXFt4nIRga4V+fBsvQ4ylQwe+yTK3uomFQGaHADRZFgJvQQAWC4D1r/w n8E1rdPaAZejH6O9HXCY2+Jpx0QK0fiy4owTyrNOTjXoxUjHgXegW7WBU5us3AVG0iUMmx59qUL/ I3qUfWSHp9X/78vFwWc1aqDdqoe6qRce+ySKu8Ywtjgv7BzfAGVm64W4Bs4jYhCAfWAhAKEOrVxd FXJ1VZhfexsI/7vT2gHH+ROwn/oy7rW3IhC91bM4F1icC83GUhR3jUN51omZ7vGYi08KxZR7HO37 dmHR5qd5uV7x0JS/gWeKM6aSw7w50GgkVASGp9D/4ELGeAebNguanxlR3DWGnojJXzw0RdecRhQO QEAcAtDC5iSntYN2u40QBX39FnhcY+hv/RyXWr+k9NjTkTERbs6NqeQYC4gBAGjcXhTYJvyFHmyT gNsL34CbthuR0Fz8v/9B9catrK2ATBX1Zmlu1ziuLE99ASAwby6H0ZAN3wf++BBPjwtlb3Wj/xE9 owj4vxt5Ua9r6EPZJQEgCMQD7AdAW+zecf4E6/12hVoDXd3d0NXdDY9rDNav9sNyaG+Yhz4exlRy jBmzAZKApOKhKaiGyC0EojLMTJYck1p222lcgp50XePIsozBc/BK1LEp9zj6Wz9nXQk5d4GRUjzl lvFULb5JSdeKfFSoZZDvtcHn9gXX9mxEgAxlv5uuNb1oBCDp7cHJMBj0TwJ4le6cueUGrNnO3ZkV ClWr60gUFdkwP1oR172EhKoGfdmSOtzyDy+xuoaj/QSOvvgY5fHLv7o+JUOCmZYvWtsEVLu6g9ac onROTCJA0wdAkDbgVAi9DUiwj+mEkT4LXI7+uG5StWkrbnv+PWSqhGtumRRC6uGHwmU5VFR9M+3n VLYv9eIEjF8PI2eHmTa7z6bNwsCzVcGcEcIS4JqdSuMAFM3THxCJAAS2Axk9dwMnv4j7Xrm6Kqzc 9hbtOTT/eCmBN5/6Ccel8tH8pasoj3lOjsDUzM+SKhlobRPBNT5Tii8R/quo8Aupxz4J1S72IqC1 TaSEAxAQiQAEaGI6wXJoLy83ytVVQXfrHZTHxeLMqzgzShlkQoePxlzlkuNv+O79tMc9B6+g8tcd MBzjp3JOIhktUIZlgrIRAfOjeihq/da6z+1jLQJZNtoHiCQAFDQxneAavMRb7b4FdXfSHue9MClH tLYJZLx3kTLIhA663gp5C9knLjEJJeAPv57Za0Plrztgar4k+OdGRfCpzkEEAP8Ogewuf34HWxFg KGknCQAZge4o0e1wI7h45BNe7seU3kvlyU8GhCMK8Juf83d08FYhiWuC0OLNT7PymXiHp+E5eAU5 O8wwvdyJysMO3qs6xUusItC1pgiye7WQqWTwuX3I/veL9DeiEWCLpVsSABqamE6w/vnTWV+2a0ol g2zutVBkLuYnAMoiFJmqbM6pywq1Biu3vcXJceqxT8J7YABzXu3yWwZ7+lBxxhnTcoZvYhaBFfnB AiG+OurKUhq3l67L9eEYhpxQRCUAFkv3PgCjjOfN8rJdVwoy/V/SG64F43ARAapw3VjTkwnHaSy7 J97haXhOjiDjPSvmPXceppc7YWq+xHu5Nyq0tglUfhrurAyKQO213Tg2ImDTZmH0KSO6VlDHQBSn QApwKKISgACMPbC6D30w662AMZUc5gcXQrHyWjlzNiJQcYa8GzIAlNSujnk8uboqrN+5n9EnwITH PgnPwStQ7OqB8blzMO3pS5hlYPx6GKpd3fB+diUq0YcIA+YqAkwh0JkptP4HxCkATUwnEFFtiWQO vSc3aZg3lYZXqWUQAeVZagEoq709rrEo1BrUPNyIH7zxGRbf9zjUhSVxXc/n9sFzciQmRycTFWdG 4fvAFtzRocr2i0UE6Jih7wPYEvOFE4ToBCAQE/Ae03kdH7+d0HFE5gMISWj6KUAtAhq3F75z5AJQ tqSOUzYgHQq1Bvr6LVi/cz9ue/49GNbdE5cYeOyTKNvDb9/DnsV5Qcdd8D4JFgGG9b8oioBGIjoB CNDEdIJr8FJaNfKwGjVwb73mvPK5fVA3hZdSKPvSQRnDEI/5T0eurgqLNj8dtxh4zjl59wsQjrvQ 2g6e1hGY3oy2OEK3+4DYRIBh/d/C6WJJQpQCEKiWwugxnS2NPNiavzZtVjBCTaaSwdWwMOwaviOD pO/LVGXHbf6zIVIMdLfewclxmHWc/4AimzYL9p8Zg1F9wLVsv8jPndjuI+AqAgzr/xbWF0oiohSA AI1MJ8TbyIP2y0ldz51XdF3jmPfceVQedrA6n4hQc2/VhxWzpHv6z1+6ijfzny25uirUPNyI7/3u EGp+/CzmlhsY3+M5OZIQh2Awqi/EoUpVyYesKQhbEfD9ldr/AkkAuMHWCohnRyB3gTGm9/FJVvNl AID3wAAnj3jo5Kd7+gPMUY+JRld3N9Zs340Vj/6G0SIoodnFiBfCoRps9kEhAkRTkODS4RPmxKfi oSm6QjGjYgsAIhCtAARoZDqBqHbDOxM02dw84r3lmvOJ8IhzDaele/qrC0tE09Rkfu1tjPEEfHeG jiQ0oAegFoHg0qF2LmS1zLUP5tILV0vsI04sohYAtlaA5dCHvLfzovHm8opleT4y7gt/KuW92sXa Icb09K+6+yFexklgP/k5Oj7ahVFre0zvz9VVYcG3v0d5PBGdoSOhSvmNFAEiVsC8qZTxmhknaJcJ LbGPNrGIWgACNLI56cyeVxI8jMRhWR7urfa5ff6+iCzSbeme/nw7/0at7Wh791/Q/kkTWrY34OA/ 3o2LXzGmb0Qxv3Yt5THv8HRSEorGVHKYf14Z3P4jRCCWexcPTTE9MFpiGmQSEL0AsLUCHObTGGiN v15AKMlMZgmanDfkBl/zHLwC0ztWWr8A3dOfb+ffsTe2Ydp9zTnqGrqM1qbf4NjrP+d0HaYlSW6S woSBwPYfUec/YH1x/XdnMP97xbr+B1JAAAI0sDmp7Z1/4eQQVBfSm3bxtBGLBX/4ry58SXDOSVmR xnBsmLZ2QdXGv+d1fOtf/BjLH9kB/bp7oC6YF3zd/s1RztcqMlF3hOPDD2D8epj1RO5akY/Jp4zB bD9OiVdIXfMfSBEBCERQvc50HleHYGgfPzKECgcmlgSha1TVru6oOH/5V9Rbh2VL6uLqDUhF6bLb sXjz01j/4sdY/8J/YNF9j6O24Recr0ObmESTTsuG4qEp4BN74DNjzC0DEO4XIESA7b0YzH/GcndC khICEKARbDIFD33IumiIUk3fJ1jIcGAi6EdZ59+79rl9yHjPGvQLaG0TtF+8iu/+MOFjVBdpYajf ggWraAs6k1J4PfUyIF4HbP4+O3xuX+Azu8h6Hz/UL5AREjNAR8GX1Esw+Lf/JAHgg0DBkCfZnNv2 zq9YLQVymarj0CTW8AXd+n5MJUfHxlLMPKC7tiQ4eAWmN3uQHYgfIGNuuUE0W39UMI0vnrDg8fqS qHz/yJRgOsyby9F5B3M4s8bthfckrbiIevIDKSQAAGCxdDeBhUPQNXgJZ95nLn/NZCJ77JMJrXdn erMH83d0MEYB9izOxehTxmtLgp5xeCiSfgCgYv3f8jrOREHnB8iiz6qjJRgyHZLgQ5YSHC8lZ5xM 9SMlAUgADWCxFLD++VPGXQF1URljZFrGAXtCdgN0XePw9IzD5/b5owAZvP3BIiHL6EvKqwtLWDf/ EBpaP4AtvmUAsYcfmuDjaR2B6Z1e3sKNZQeprTCkgPkPpKAABByCjWzObXvnXxh7CTBVySEcQnzH qKsilheec06UvkK/BTWmkmPiFvqoNN2t1EE2YoPODzBj58cB27WmKCyV2nPuKi/1BwzHhpl6RIp+ 8gMpKAAAYLF0vwYWS4Ep9zja3t5Oe86Cuh8w3s/n9iWkaEUk3uFpqHZ1x7XsMNT/iMcRJRY6P4B3 eJrz561xe0kF1GrU8NLsIxSGpz/AorKVGEhJAQiwESyWAg7zaXR8RL01OL/2NnaZajR94GOhY2Mp 5HdFb0P63D7M7LWhKsbOO8nO+osXOj8AQ359GBq3F2VvdVPu4Qc9/AHvPtdmH6FUHnYwPf1Pizn4 J5SUFYDArkADm3PbP2mi9QesfOb3gohA55oiTIY490KZPjKY0Hp5YoFuCUbX3yCSsj198NgnGQN5 QjMCiXPZxgoAfqGZ+Wx2PP2BFBYAIFhFmDFACKD3ByjUGqzZvptVwUu+RSByvz/sXiT18uLxjouR 0mW3UR/kUJPBd+O1EGomEQitFMQ1VkDbfJnJ8z8a2K1KCVJaAADAYul+Eiz6Ck65x3H8jX+kjQ+o ebgRNT9+lvGefIsA2X5/6L24NAaJt4FqssnVVVHuxFCVNycjNJwXYBaBa7kX/mAw3wc2xn9PrW0C 0zS5FwFS5ukPzAIBCMDKHzDSZ0HbHxtpz9HV3c2qgzDfIgD49/sHnq2CoiL83sSXmU1wTLwC4HLY YGnejY6PdqHjo12wNO/GtOtqXNdkgm4ZwCUgyKbNiqqbqNrVTfl0J0qvy79TDNm9WsYW4Iwdgfzf wZQSgIyZmRmhx8ALBoN+KYA2VueuuweLNj9Ne47T2oGvf7cNrkH6CLJY+8czUXnYAe+BgajX5flK WgdU9Z0NqNq0Neb7dny0C+2fNIW9plSpUXXXQzDUb4n5unRYj3yMtnd3kB5TrC+GuZ5bkVHCIRga Uiy7V0vb0IMJU/MleA5eYTptu8XS3RjzTQRgtlgARM+1H7M699CHjBWFc3VVuK1xN6NzMBGWAEDt IGTwPsNhZqWBlOTqTFGvTbtdOLv3DbT94fmEWAO0YcExhGNH5voD8dX719om2Ez+3lSb/MAsEgAg GCrMzin47g7GSEGFWsNqhyARde0BegchFQ7z6bgqJWfSJEhZ/9KMoy/8NOZqQFSoi8ooP2OPfTJm cTVvLof8O8XB32MRAY3by8b0B1jmqYgNeWNjo9Bj4JUnnnji09/+9vUKAEuZzr1y9i8oWfQtzMmj bvYoU2aiwLAI/ccOwuuhfvr6rkyieGYGg0Z+9+GnlDIMVudgbmkW5OarmPEwL9k088uRx7EJKIG6 WIsMnwf679yHijUbofv295FbbsSY/QKm3eOYdA7jwuF9yPB5kLewCnLlNQtl1NqO3s8/RAZmoC7W Ut+EhDF7D4Z7zpH/PcVzMKxVxfT3DBk1KMxTYuac33KZOXcVhXlKDJWzu17Ff12C5xyj1XPYYun+ p5gGKDCzxgcQicGgPwWAOsokQKYqGyu3vcXYNddp7cAX2x9gvK9nawWsRm5NNE3Nl1itc4uHppD/ bi9juqy6sATrd3Iv1UXHtOsq2vf9Ht2HPgx7vajyJgCAa3AAriH//nheuR5rt7/P6fp0n6/ihlyY H9TFMOprEC3XiS08Nj4Bw7FhzOxlZdlViLHrDxtm1RIggrVguT14dOcjjEVFc3VVWHzf44w3nfMn bsE7xPrS9GYP4/uuFGTC/PNKxiWBa/AS70VSleocLN78NJY/sgNK1bUmG47Ob+Do/CY4+f33j3Ze MpGrq6LsKOQ5F39r8agdAoblgNY2gYwDrKIxt6fq5AdmsQAEIgXXgkcR0NdvoQ1dBfxOurIv2TX5 AIDss/7dS0/POGMyEAFVGHEo9pP81kckKF12u79L8LfqSY8rVWqs3PZWbNdeuor6GA9p2cE04RAR ICsCqnF7oW7qZQr4Afymf2PcAxOQWbsEIDAY9HPhr8vGy3LA5ejH4ca/w5Sbfn/66rMmxlbSgL8m QGTAi/yu+ehcQ+2XIKj8dQflrkCRaQlWPvN7xmvEw7TrKpy97RixmgEAc3Um5C6sZqy0RIXL0Y+D z/wN6TFF6RyYf14Z81gjMX1kx8TiHFgjfDZkW4gUjAJYmspPf2AWWwAEfFsC6qIy6Nfdy3jf/H3s zODh+7VRgT9s6gMAgG/9PMpjDjPjnxs3SnUOCq+/BYb6LTDUb0Hh9bfEPPkB/2dLZWF57JO8lgs3 byqNmvwAULbPzrYkWUOqT34gDQQA4F8EqjZtZeyAy7bb7ZWCTJgfrYBifXHY62zqA1iW50eFDofC tjaimKja8BPKYwz19+LGtKcPnpMjbE59PRWKfbAhLQQAiE0E6CYQm447WTR1+yIx15fAs7UibEJ7 h6cx59Uu2pJhspA+ApEMnk89ASiqvpnSCvCeHE5YdiSHyX84kH8yK0gbAQBiEIEXH6OMGNTV3c1s BfSMc4pltxqzSXMB6JYE04uoBcB5sYv1vcUElRXgc/sS0jyUw+Q/DX/eyawhrQQA8IuAxdK9FMB7 bM5ve3cHzlIUGK158DnG92dxNFv9razJlwRkVWyu0MQcxBsWLBRF1TejbEkd6TEWlXg4wWHyjwJY G3iIzBrSTgAILJbuBrAMG7Yc+hDHf/t0VIhtUfXNzGHC55wxOa/M9SWYfMp4rUU1rlWxCS0ZNqaS R1kMBFPu8ZRLDya4cfPPSF/3Dk/HVTI8lHSf/EAaCwAQrCXAKoGo//QRfNG4Jco5yKYEdz4HX0Ao ZP0CiZJhYdWCjGqKK6SmIxDw7whU39lAeoyLb4UMjdsL08udXCd/SpT44kpaCwAQTCCqAYt6Aq7B S/hi+wPobt4dfI2NL8AXRyQb0S8wMvCHqBaktU1guow6rt0Z2KNPRQz1PyKty8DVtxKK1jaB0le6 2G71zerJD0gCACCYSnwdWDgHAeDM3jdw9IWfBs1rplLcfDivyNKDiSWB8jj1k2z0Ymdc9xUShVpD GXMRixVgar6EOa92MaZUBzgNf6DPrJ38QBpEAnLFYNC/BuAJNudmqrKhX3cvFqy6mzKCjYCvSDaN 2+sPVmFnvgIANrz9l7jvKyQHt20gLczCNvHKcGwYsoOX2U58wD/5Z+WaPxJJAEgwGPQbATQByGNz vrqwhLFyEABMPmWETZsV3+ACGI4NI+OAnU28Olb+4+9E3yuQDqqKQYqKbJgfraB8XwwTHwDeCziI 0wJpCUBCIMprKVguCdhMfgDQHOevz2BkC3E6nL38ZgYmGyo/i6dnPKxlusbtRcUZJ0x7+mB87hxm 9tq4Tv6n0mnyA5IFwIjBoG8E8Dwf15LnK9H5y9gKdVChcXuhbb5MW61Wd+sdqHm4kdf7Jpvu5t04 s/eNqNdlKhlk81XAhCeetuK9ADbO9vU+GZIFwEAg3bMGLK0BOrzD07w3GiVKitOlBztT2BFIoFu1 gfR1n9vn75Yc++TfjzRw9lEhCQALAl+OtQDoGw2yILv5Mq9ZbQT25dTVbUb6LLzfL9ko1BpW3Zs4 MApgk8XSvTEdnH1USALAkkAIcSPitAY855zI2WGG6eVOVO3jr/X4mEpO6w9I1YCgUHjse/g6gOtm S0ZfPCiEHkCqEbAGlhoM+ifhb1POaqcgEo99ErBPYs6RQVTmKyG7MRdjt+THtUuQYdAAFKaws7cj ZXcCXI5+dOz7Vz5qHBwG0GixdLfEP6rZgSQAMWKxdL9mMOj3wd8JhnyByhLv8DS8RwbDxGBodSGr ikKheMqoxSPVAoI8rjH0t36OS61fov/0kXgv1wv/xG+Kf2SzC2kXgAcMBv1a+IWAsewYFxSlc5Bh 0MC9KJdVwEvx0BRydpCH/s4tN2DN9t2kx8SCy9GPgZNfYLCjjY9JD0gTnxFJAHjEYNA3wC8EMS0L 6JCpZJBVaDBjUGNSq6IUBLo6gWKLCHQ5+uG0dsDeehgOcxvreAoWSBOfJZIA8EygCOmTgR/ehSAU RUU2MrRZmDJkY0ybhSsFmTC9Y4XnHHnegdARgY72E3D2dmD0YiffE57gMIDXJOceeyQBSBDJFAIC mUqGjCw5pQWw+L7HoU9Qg89QXI5+uBz9GDx/Aq7BATgvdiZyK3IU/rDt12ZDkc5kIwlAggkRggYA C4Uci7qwBHPLK5G7wAgAyFtYBUVIFV91URnURWWU73daOzAV0hzU2duBaddVTLvHMHqxEx7XWDJj DvYD2CeZ+fEhCUASCfgIGgCsEXYkKct+APvgn/hpG7zDJ5IACIDBoL8OfqtgIwS2CkROL/xNXfYB aJEmPf9IAiAwgdRj4icpvgIRMwr/hG+Bf8KnZXx+MpEEQEQExGAt0scyIJ7wLQBOSRM++UgCIFIC y4S1IT+pLgi9AE4Fflrgn/CSSS8wkgCkCAFBWBr4WQt/DUMxikIvgAvwT/IR+Cd6i4DjkaBBEoAU JxCGfF3Ez1zwHJYcwuHAf0fgf5oH/yuZ8KmHJACznEAcwlKSQ5GvXwj8RCJN7FmMJAASEmmMVBBE QiKNkQRAQiKNkQRAQiKNkQRAQiKNkQRAQiKNkQRAQiKNkQRAQiKNkQRAQiKNkQRAQiKNkQRAQiKN kQRAQiKNkQRAQiKNkQRAQiKNkQRAQiKNkQRAQiKNkQRAQiKNkU7C0jcAAABHSURBVARAQiKNkQRA QiKNkQRAQiKNkQRAQiKNkQRAQiKNkQRAQiKNkQRAQiKNkQRAQiKNkQRAQiKNkQRAQiKNkQRAQiKN +f8K3a/Xg9qEewAAAABJRU5ErkJggg== "
       id="image2202" />
    <image
       id="image2188-2"
       xlink:href="data:image/png;base64,iVBORw0KGgoAAAANSUhEUgAAAQAAAAEACAYAAABccqhmAAAABHNCSVQICAgIfAhkiAAAIABJREFU eJztnXt4U3We/9/NpTRp2tIbpU0JNknTqiC0KIxDuSjD1JlRgX3UHWH2saPODo+XVWdc3HF+ruWZ HeYR7+Pow+yMWp9nkR10VxB31y6iRWFn5NKCMNCmTUtD0xRIb6FNeknS3x/JCbmca3KSc9Kc1/P0 0eacnPNtyPd9Pt/P93PJmJmZgYSERHoiE3oAEhISwiEJgIREGiMJgIREGiMJgIREGiMJgIREGiMJ gIREGiMJgIREGiMJgIREGiMJgIREGiMJgIREGiMJgIREGiMJgIREGiMJgIREGiMJgIREGiMJgIRE GiMJgIREGiMJgIREGiMJgIREGiMJgIREGiMJgIREGiMJgIREGiMJgIREGiMJgIREGiMJgIREGiMJ gIREGiMJgIREGiMJgIREGqMQegAS/GMw6JcCmBvx8nWBH4KWyPdZLN1Rr0nMbjKk5qCph8Ggvw7+ ybwW/olOTPglPN2iF8CFkJ9TAC5YLN2neLq+hEiQBEDkGAz6ufBP9KUh/80TcEiH4ReEUwBOSaKQ 2kgCIDJCJjzxw9dTPVGMwr+caAGwz2LpviDkYCS4IQmACAiY9BsDP2uEHU3c9ALYB6DFYuneJ/Rg JOiRBEAgQiZ9A8T/lI+VUfjFYJ8kBuJEEoAkEjDvG8DTpJepZJDNVwEqOaCdw+5NQ9P+HwAzI1Pw Dk/HOwy2SGIgQiQBSAIGg5540m+I9RqK0jnIMGjgKcvCdEEmrMZs3sancXtRYJuA3O2Fst8dFAlP zzhv94iAWCa8JvkMhEUSgAQR8rR/EsBCru9XlM4BFuViwqDhdbJzpXhoCqqhaWRZxgDbJDA8CY99 ks9bHAbQZLF0N/F5UQl2SALAM4G1fSOAB7i8T6aSQVahgXdRDi4tzsWYSp6I4fGGrmscc2xuZFhc mLG7+VhKjAJogmQVJBVJAHjCYNCvhf9pz8nMV9yQi+lb5qJncW4ihpU0ioemoLFNINMyjhnLWLxW wn74haCFn9FJUCEJQJwEJn4jOGzfKUrnwLuqKCWe9LGicXtR3DUO5VknZrrHY7UQTsMvBE38jk6C QBKAGOE68WUqGWQ35GJ8dRFs2qwEjkycaG0TUHeNIePEcCzWQS+uLQ9GeB9cGiMJAEe4Tnx5vhKo K4R9ef6sfdpzpXhoCvnNl+E754TP7ePy1lEAr0ESAt6QBIAlXJ178nwlfOvnwbI8P5HDSmk0bi/K vnTAd2QwFiHYB6BRchjGhyQADAS2854E8Dyb8xUV2ZheXZjyTr1korVNYM6rXbG+/T1IQhAzkgDQ EAjgeQ0s9vGlJ37smPb0wXMyboteEoIYkASAhMBTvwkst/Tk+Up0/rIqoWOajWjcXpS91c13YNF2 SD4C1kgCEEHgqd8Ejjn3kunPDa1tAuqm3kTlIkjOQpZIAhCA61OfCmK7z2vIhtOYjSsFmbyMbzZh ODaMjAN2ro6/WOiFf1nQlOgbpSqSACBYQ28fYojZZ4LI2MvQZsGXr8SkVgV3gTJthaFqnx3TRwYZ z1MXlqDq7ocAAD0H/4SRPks8tz0N4EkpsjCatBcAg0HfAODdZN9Xnq+E7MZcDK0uTAsxKB6aQv67 vazW+0WmJVjx+MtQqDXB1xztJ/DXPa/GKwTvwS8E0rIgQFoLgMGgbwKHpJ1MVTZyFxiRt6ASSpWG 9BznxS64Bu2cvqiKG3IxsbpQ0Ky/RFJxxgn53j5WJr/u1jtQ83Aj5XHrkY/R8fHbcA1einU4o/Av C16L9QKzibQUgMB6vwUsi3IUmZagasNPUFR9M6f7DLR+AXvrYQyc+gpTbubc+kQ5ErWBXH8A13L+ Q5gwXBMzPpcnGrcXZXts8JxzsjqfafKH0vHRLnQf+oDV50rBYQAN6b5tmHYCwGW9n6nKRs2D/w/z a2+L654e1xj6Wz/HX//9dVZfWK7hw0TO/hybGxkTXqDL5b9vnAU9FBUBi8SoxkyWHJNaFbwqOatc Bq6Ovuo7G1C1aSun8XlcYzjz/kuw/vlTTu8LIe2tgbQSgMDkbwGLLT6ydWi8eFxjsDT/G9o/aWL9 HkVFNmBURx/gaZLHijxfiYy5mVHlyDLcPvj+6mS9vacuLEHNg89xtq5C4cE/kLbWQNoIAJf9/Vie RlxwOfrR9vZ2OMynE3aPVKD6zgYY6n/Em8h2N+9Gx4F3Yl0WjMIvAmlVrzAtBICtpz9TlY0bf/gE dHV3J35QiPsLm7IUmZag5qHnoS4q4/3aPIjr6xZL95N8jknMzHoB4DL5V257C7m65Ib0EsuCOB1a AIC55QYo1JqoXQrX4AAc5rZ4POe8EKszNRYGWr9A2zv/EutnehrA2nTYLpzVAsB28qsLS7DisZ1J n/yROK0dGLF2wH2ln/FcVXFZ8AnKdkI5rR2wHjkA+6mvkiYGmapsLPj296D/7uaEPPHpiNMaGIVf BGZ167NZKwBsJ//ccgNWPvN7Xp19qYDT2gH7yS8wcOqreINroshUZWP+0lUorV0T9w4KH7T9sTHW nYJR+AOHmvgdkXiYlQKQ7Mk/am2HZ/xq4KmsjetaQuBxjcHRfhyjvR1wmNvgvNjFyXTOVGWjyFSD wqoaFF1/s+CWVCTdzbtxZu8b8Vzix7NVBGadALDd6uNj8k+7rqLtD42wf3MUAKBUqfH9330e8/XE hMc1hhFrOzyuqxjt7Yg6rlTnIHdhFdRFZQkz7QfPH4fL0Y+Ri51wWs1Y+U//yvkaTmsHju58JErQ FBXZ8A24uSQkzUrnoELoAfAJ28mfqcpGzUP/HPfkP/rCTzHa133tNbcr5uuJDYVaE/QtJNqMn3Zd hbO3HY72k3A57Bjt6wz7XAnsJz9H6bLbWV+XavLPPKCDORBtaTg2DNnBy2ziFp4wGPRzLZbuBtYD SAFmjQCEhPcyTv54vf1kkx8A1AXzYr5mOuJy2NDS+HeshdPlsLO+NtXkV9YVoiMk1NqyPB9Yno/K ww7MfHaZySJ4wGDQYzaJwKwQALaTHwBu/OETCZn8AKD79vdjvm46wsZfkleux4Jv/wCly9ay9q9Q rfnl+UrY6slFunNNEYoX5yJ/j40puvIBg0E/MluWA7NCAOCv/sKY2GNYd0/cQT5tf2gknfwSsVFU WRP0oRCoC+Zhfs1q6OruRJ6umvW1XI5+/PX9V9B/+kjUMZlKBlfDQtrciisFmbjyaAVMzZfgOXiF 7lZPGAz6U7PBMZjyAmAw6BvBMqW3emN84b2W5t1RX9ZEQqyNp1xX4bSaMeUeg9NqDh53dH4T/P+8 cn0w+EddWAp1EfFThtyF1VCqc5I2bi4UVtfC/s1RKFVqlC5ZBV3dnSi8/hZO12BKCpKpZHBv1bNu yGKuL4HOoEHme710S4J3A8uBJk6DFRkpLQCB+H5W5brjZdp1FR0H3qY9Z9TaGfP1Iz3eo31dnJyK YVZJiDAQKFVq5JUbUVRVC3VRKXIXVnF6uiYKv2lfysm5FwrVWp9AUZGN4fu1nFOcrcZsaLfqodrV TScCrwUsgZQNFkrZbcBAo45T4FC807DuHiza/HRM9xs8fxxHXnqc8bzvv3GQ8Wk7am2Hs7cDjvZW So93MggVhaLqZZyfvEJjPfIx2t7dQXlcftd8dK4piuseLCoXjwK4LlXDhlNZAE6BZUGPUOLJ9Pvv x25nfCrr192DxSEi43LYMNrbAafVDEdHa5jZLkbyyvUorKpFWc0aUQsC3eRXlM7B+A8X8NaDUeP2 ovSVLrqtwsMWS/daXm6WZFJSAAwG/WsAnoj1/WVL6lDzcCPnOICOj3axyuUn1uNczXgxUnrTShRW 13LywicaR/sJHH3xMdJjyrpCdGws5f2eWtsE03Jgu8XS3cj7jRNMyglAoDnnF/FeJ9ZqPy3Pb06o yR6swgNEFdsI0hUhKhMevptrkEJYB1y983xCteaXqWSYemBhQusqshCB21Kt8nBKCUBgv/8CGNb9 MpUMM3eVQj48xdh4kmtu+qi1HUd3PhLzkz04wQuU/h/4a/INabN46R5MlAcjav9luH2YsU1gZmSK 1yYceeV6GL7zt1iwKq42CpzwuMbwReOWqExGRUU2+h/UJaX7suHYMGb22qgOp5w/INUEYB9YNO6Y eUAXLKzJtgOtYd09qN64ldWyIFYRUFRkw/xoBaf38I2uaxzKoSko+icwY5uIu6SY7lv1qPnJdp5G R8/x3z4dtcefKJOfDobeBvstlu6NyRxPPKSMAAS2/D5iOo/K86txe1G2z07bhDJTlQ39untZlamK VQT48Ezzja5r3F9Q1OKCr2eMc8eeRJdQA8ij+zLu0wrWjNX0cifdsmtTqpQWSwkBCJj+p8BQyVdx Qy7MD+por1U8NIX8fQO0paoJIWD6Uo9a23HsjW1wDV2mPS8SmUoG+bJ8jN2Sz5unmk+0tglknx0F zjpZ+xbWv/AfCXMSelxjOLhtQ9i6X7G+GOb6koTcjw0MLc17ASxNhaVAqggAo9dfnq+E/WdG1utA Xdc4spov05rA6sIS6G79Hq1FMO26imO//XnM23tEhyBRi8GXDsb23YlcCkQW9JCpZOj61Q0JuRcX GEKGUyJ9WPQCEEjxbWM6z7O1IiYPcMUZJxQf22kdZESFm6qNf0/pLGS7RUgH0Vh0elGu6LoMM7X2 UqrUWL9zP+8hxy5HPw4+8zfh9xJg3U8Fw1KgQuylxlNBAFoArKE7h48vBNtGFkWmJViw8gcoq709 yioYtbbj7Puv8BLsI1PJIKvQwLsoB5cW5ybFw80EU1RcbcMveN8VICvnFerkFRpd1zgUu3qoDos+ QEjUAsCmtJdMJcPAs1W8TBC2OwbANavA8N37o9KLB88fR/v+P/Aa9aeoyMbMohyMLM4VtJko3dq3 9KaVWP7Ey7zdi+zpDwCXf3V9QgXR+PUwBm5iL7qmd6x0PiVRxwaIXQAugMHxlwhPMJsdg1DUhSUw rLsP85fdFrZEcDlssJ9swUDbYd7EIBkBL0zonz5L+jrfJdHIPP+JXv8TAidTyZCxshD2NUWMQlA8 NIWcHWaqw70WS/d1fI+TL0QrAGye/oneVy8emkJ+82XWQgDQLxEGzx+Ho/0kRq2dGO3r5Lx7QCBT yTD6lFEwS4BKAAB+dwPI9v0T/W9uer8PntZr/95shcC0p4/ueyLaoqJiFoALYHj6x+r44wqbHQPS 9916B2Np7MHzx4P5/i6HHa5BO6scAsWyuTDfX85pPHzAsOZF3dNv8JZE9D+PrSMt5plMAQi7d+1c DN8xj1R4U9UKEKUAsHr6U0yA4qEpzD02zMp044quaxxZ+/s5x92rC0tQunQVdHV3sSpHNu26iv9+ fD3jeVefNSXdCqg87ID3wADl8bXPN/GSJ0C1/k/GDgDxHZo5Su4LohICBl+AKK0AmdADoKCR6YRh ktpuWtsE8l7tgvezK5i/owMVZ0Z5HZTVmA3zzyuRcZ/W38KbJa7BS7Ac+hBfbH8Ah5/fAuuRj+Fx jVGer1TnoPSmlYzXnXuGOpgpUWScvUp5TF0wj7ckIac1uhQ5AMyoEv+VvVKQic47StD1qxsgu1cL RWl4QpandQQ5O8wwfj0c9vrE6kK6y74WCGgTFaITgMDTnz7ib9ncKPXVuL1hmVo+tw8Z712E6Z1e 3sdoWZ6Pzl9WIeM+LWQcv5AjfRa0vbsDB7dtQNsfG+FykLcBK61dzXitDEtyU401bi/tMojPoqhk vQiEoGtFPsw/r4Rn63VQ1IbPX3e5Kux3qzE7SixCyAMgusAg0QkAWHxIZE//snfI67fN2Cf4GRUJ luX5GHi2Cor1xZyFYMo9DuufP8XBZ/4GZ99/Kep44fXM/f58PdRWRCIoYbA4Fqy6i7d7uQaplxlC YDVqYN5cjqvPmiD/TrG/wjBJ5KZ3FW2ex5NiswJEJQCBqD/aKj9kT3/j18Pw9JA/DWe+k9ha/WMq Ocz1JTELAQBYDn2IgdbwEgfqIi2UKjXt+3xuHyqSuAyQH6feDdF9q57XXADXIPseAMmEWB50/pLc l3NpcS7dd0B0VoCoBAAxPv0zPiPfTpPnK9G1IjnZYvEKQcf+P0a9VlRZw/g+5f9eQvHQFKd7xULx 0BS9+V93J6/3E5sFwJYxlRyyG2ijFCUBoIE2j1pRkR319Nd1jVHG8Sf66U9GrEIw0meJ8gfk6SoZ 3+exTyJnhxmmPX3Q2hK33Mk/Pkx5rKjyJt7rByarfXkklb/ugOmd3rg+y/HVtMuAvICfSxSIRgAC +f60lX4mSJ7+WcfIzdJkPv3JCBUC+V3zWe0aDJwMXwbo67cwLgMIPCdHMOfVLpje7EnIsmDmBLX5 X73hJ7zfTwiKh/xVkzznrvo/y/f7YrKubNospn/vxljHyDeiEQAwPP3l+UrSoB/feYov+zJx+FrG VHJ0rikK7hrQfTHsp74M+12pzsH6nftRVHkT6/t5esaR8Z7V/yRrvgSN2xvz2AkMx4YprSx1wTz+ n/4UOyMAkMGxWAkX8iKEk9juq/yU++cou5F2GbBQLFaAKAQg4BmlL6NUF73HWnFmlNTzL1PJYBdZ 1R3Av2tg/5kRCgpxcl6MTrJRqnOw8p/+FbUNv2BtDQDwP8kOXsG8587DtKcPuq7YS3/ROf+q736I 8f2j1nZO96MTgJkELnNkZ8kfJt7PrqD0la6ofX86xm5htD4bWF8sgYhCAOCf/LTmv50k4UcZWR03 QMbKQlGkz5IxppLDfH95ePXfAFPuccoAmAWrNmD9zv2ovrOBkxAA/uWBYldP0CrgYtbqusYpnX/q gnmM6b9E6TRL825OYxaC4fvLoagg/2y9w9PwfWCD6c1uVv4BFsuANYFdL0ERkwBQolg2l3RCz1CE XY4IVCeOE0byL9oIhQAAfmugatPWmIWAsApydphhesfKyleQ1UydsMT09A+tm9hx4G1Mu6ijCMXA lYJMmB/VY+aBBZST19PjwpxXu1gtCxiWAYAIdgQEF4CA+U/7GJleFP1BEg6bSBS10XECYmTCQF5i zH2F2vwliFcIAMBzzomM96wwPncOVfvspE+1ijPOuJ7+jvMng0lN024XunmwAuKtYsyGnsV56Pxl FWT3UvtsiGWBros6GMtN8r2NYKPQgUGCCwAYnv4ylYy0+kteJ/kXYWK5OJx/sULmB6CCDyHwuX2Y PjLof6r9ugOVhx0oHpqC1jYB+d4+yvexWfuXLlsbNibLob2itwJC6Vrh99nIv0O+nesdnoZi1wWY PrKTWgNWYzbTNnAemHxfCUb8AkARVCH7a7T56t8p4NbuS2xMublPED6EAPB/ob0HBpCzw4w5r3ZR VkXKK9ezKv2lLtLCsO6+4O98WQGJiHeoODMK43PnYPrIHuYjGVPJ0XlHYDuXQgg8RwdR9ha5b0BW wfh9THsBoP0mUQVV+EhMwRmSnYJUw2E+HfN7Q4Vg0X2PQ12QmECoxT98ivT1UWs7Ln61P+y1qk1b w8bR/kkTXA7KzjqskPOwtRmJsssFn9sHz9FBv48kIgaASQg89kmodnVHLQlmDIxivEHIZYCgAhAI /qFEppKRJlxobROkTyd3ij/9+UKpzoGhfgvWv/gxaht+gbxyPW/Xpor6m3ZdxbE3tuHMn16P2var ffC5sN87PvrXuMaQZeE/CSrSoUzEAHARAp/bh6z94TkMLnbfScGsAKEtgLV0B6nMfxWF40WMdfWp SMRTjIwFqzZg7fb3Uff0G6xqDDBBFfXX9odGuIYuY9rtwrE3toWt9QuvvwXVdzYEf7f+pTk+K4Bi +zceMrLIpwKTEBA1Awhnocc+GXaeTZvFJhxcMAFQCHXjALR/OJn3HwBktglEPv+p9m/FirLfDU8S 71d4/S0ovP4WuBw2XPzqgN8hx7GtWelNKymj/qZDfBeuocs4+sJPsXb7+8HXqjZthaOjNVgc9ezu VygrCBdV06dCe3rGYXq5E8hSBH8PRVE6B1iUi/7V7KtCmX9eCeNhB/DZZVLr0tM6gpzWEeTXzkX/ ptKw63atyAdW5EPXNYY5JAFXsgoNfDSdqMDwIEwkgpUEMxj01wGgLi4HoPulRaSvEyWbQpk0ZqeU A5Cuq8yGt/+SlDFc/Go/7K1fwv7NUVbn0xX8nHZdxdEXfhrWOj2yW9C06ypant8SLIZKdz2yeoBc IbpEc6karXF7UXrYQVkOjLgu24rBAGMHIQJByocLuQRYS3dQQZNSGczJDvlJpckvFhas2oDlT7yM 9S/8B6PTsPrOBtp8f6U6B8sffzFsB8L6l+Ywp6D/nJ1QF8zz/9Bcr8jEnArNhM/tw8xeG0x7qLcz I2Hj9fe5fcGyc2zCg6liPiJYy3qQPCJaAWDhPU1tbOSFRTNVya/3ry7SBp2Ga59vgn7dPWGOQ3XB POjrt7C6zsptb4WJQGvTbzB4/njw9zxdNda/+DGWP76T9loV3/1hDH8JOZ6TIzC92cMpoYetEPg+ sMH0cidtQNAQO9/UWtaD4xEhlwAXQFP7b/IpY0o59bhierOHNKqtyLQEK5/5vQAjimbadRXO3nao iss4VfuJbJ2uVKmxcttbnAuGOtpP4OKRT6KqA0VaB86LXXCY2xiXDIrSOeh/RB9TngibpYGCxD9A UPnrDtr+kwBGLZbupG8HCiIATOt/sXR/TSTG586RfpF0t96Bmocbkz4evolsnZ5Xrg9zCvKNxzWG M++/FNVHMJJ4+ykQQoCTI6QTWqaSAXeWRtWioBL8CJLeTFSoXQDaLCgW0VNJhUilZbv/PF2mgpfm KaMcmqJ8ihRW13IfoAjJ01Vj7fbdQcdgqHMwESjUGtQ83AjXoJ02mMpzcgRVKnnMvQWIpQHuKIHx 62FkfHY5TAh8bh/wgQ3GCS+6QlPSjWqAWQCuA3AhpoHFiCgFAFrK0spJJbJ1ONttuwzQf7B0NhfT FlgqoVTnYO3295OaClzz0POkDUVCmT4yCENZFunugK5rHMqhKUwXZDJ2nSK2/yrOjEL55WBYYVrZ WSfAvSbFUgAtXN8UD6IUAJZe04RiODaMmb02JCdcx0/Zkrqw5qKzBQMLByJfqIvKoLv1DsalwMxe G0xnrwLaOchw+zBjmwia6DPwTwyjSgb5snwMrS6kzTDtWZwHLM6D1jaB7MMO+M474RsIzwuYMGig YN4KTLoPQJQCwNJrmjA0bi8yDthpn9SJ4MbNP0vyHWcnVRv/HgOnvmJ0CnrOOYFz1Md9bh98RwaR c2QQ+TfkYmJ1Ia1VYNNmAZvj6te4Np43x4JQ24CU3n95vlLwaj5l++yUa/REUfPjZ2fl018I1EVl 0K+7l9dres45odjVA9ObPXGVVxMbSRcApjJIGaUqusNJgSFsk1cyVdlY8ehvoKu7O2n3TAcM9T+C urCE9+t6esaDQpDMpiyJQoglAP06R2AHoK5rnPbpX2RaEtyHdg0ORO1RM6XzZqqykbvACHVhKQqr a1FWezsUauF9HrMNhVqDFY/txNGdj8QdUkyGp2ccGT3jqMxXwrd+HqdwYxqu4+MiXBBCAGgtAG++ sOW8sixjlN5+w7p7sGjz00kdj0Ts5OqqsHLbWziz55UwYc5UZWP+0lVRAuy0dsDyv3sYHYiheIen gb02VB68DNQVYmRxbpTDsHhoyt9WnvlytE1xE0HSA4EMBn0jgOepjnu2VjBuvyQSusSN9S/856xa p7sctrAahLkLq6FU5wg4osTiaD+BubpqRovL0X4Cx3/3TMyWgzxfiYy5ARGY8MBjJw/7JsNi6c6I 6aYxIrolgNA7AFSoC0tm1eQ/8/5L6D70Ydhr6oJ5WP/ixwKNKPGwjbEoqr4Z63fux9EXfoqRPgvn +3iHpwH6sF/RIMQuAO0SQOgdgJks8vurC+cneSSJwZ+Suzlq8itVasYEnXRCodZg5TO/R9mSOqGH klCErggUBpv+eYlmUku+C5GpSn3TmCxnn6Dmx/+Pc7LObEeh1uCWf3gJ1Xc2JCtLczQZNwlF6IpA YQTXTQKiHJoiDQDKXWBM+lj4hG7y1zb8AqXLbqd8r8vRj4tf0S8NCq8PN6/ZrLVThapNW2Go/xGs X+3HYEcbXIN20qXB3HJD8G/OVOVEfWesf/4fpq7Hp3gcNitEJQBCUzw0BflXjqSW6iJj1NoOx/mT GGxvxYK6H9BOTrYo1TmYdkUnM9U2/IK2xLfL0c8YWw8A+KSJ9jDd5AgVD7HmQijUGujrt7Cqi0BF 4fU34+iLj/E4qvgRQgDWUB4RYP2vcXtRemwYGSeG4bFPCj75XQ4bWrY3BH8f7evkRQAAfzOP1qbf BH9nmvxAdMvyWIl8YvafPnLtFxLxUBeWBP0uRNxF4fU3Q11UlrLO2EwR7rCIywJIYhCQ4dgw5Gev wnPOySrhR1WcmC/d4PnjYYU21UVaVN/ZgPbApHANXcbFr/azasTBxIJVG2A9+l9wdH6DRfc9zuqa QnXycQ1eCprLwT38wGeiLixB6dJV0NXdhVxdlSDjiwUFswBIS4BEUjw0hYIvB+E9OexvAsHyfZmq bJTV8vMUJhg8fxzt+/8AR+c3qL6zAVWbtgaP6eu3wPp//x0sptH+8du8CADgL+vd33Y4qRl6fOMa vATLoQ9hOfQhikxLsPj+n6WEENC1PQ9A3Yc9QaSFAOi6xpHVfBmennFw3Z0tMi3Bisdf5tWh5XLY 8PWbzwRLZlkO7cWCVXcFy24p1TlY9MMnceytZ/3n82gFEOXB4yUs2IWi0zEriBr/HANmCBzm0/hi +wMwrLsH1Ru3prrj8UKybzirBUBrm0D2Pjs8PeOc1/ZFpiWo2vCThDil1EVaVN31EM7ufQOAv2de ZJ380mW3o/SmlcGS3XxaAXzgubuUtGkrZ+rDfy0emoLGNoFMyzh8f3Uy1dELYjn0IeynvsKKx3aK 1hoYPH+C6ZQLSRhGGLNWAIiQXq4Tv2xJHSq++8OEe6MN9Vsw0HY42ChQburKAAAgAElEQVTD/s3R KH9AzU8a4di2AdNuF69WAB9cSVC49pWCTH8s/eJcYGNpmPXGhGvwEr7Y/gAW3/d4XN56PnBaOzDl uorB8ycw7R7D6MVONp2fk+4DECIXoAUUOwGK9cUw18efwlm1z47pI4Osz89UZWPBt78H/Xc3J9XD 7HLY0NL4d8GlAFnhTPvJz4NLASFCdTs+2hV0SIZC1bQlUZj29MFzkv0SuWxJHWoebkzYksDR7n+a O3s7/NWTL3Zhyk38N6YcAkGqAs86C6B4aIr15FcXlqDq7ocEy8Un2mcTE2y0rxuW5t1hDrrQpYDY rIBkYr6/HCaAtQj0nz4C1ws/Rc1D/8xpSeBxjWEk0NyUmNxE2rfHNRZTbgBLkv70B2ahAGSyqOSj LixBzYPPiSLopGrTVthPfRmM0Os48DZ0q+4Oy8qr+UkjRgMttcTmC0gmXEVgpM+CL7Y/AN2td8Dw 3fuRq6uCo/0EnL0dcA3aMXqxM3huPG3ZeaJFiJuKSgAyeCjDZdNmwaiS0Rb1EMvkJ6h56J+DwT9+ h+BLYT31iJZaLdsbRGEFKCqES9fmKgIAYP3zp5xy/AXighA3FSIZ6ALVgRnbBNUhTlC1FSfwCBTc QkWerjqqffZowAwNPWfRfY8DABztrckcnugw318OxbKkL5cTTYsQNxWVAPAFVVtxAnvr4UQPgTNV m7aG9eM7+/4rUecY6reg+s4GFM2S5iHxMMtEYDTZHYEIRJUOjAl+IvF7FueSNnMkGDj1FS/34Zua h/45+P+Ozm/COusSVG3amlTzn8XWlWCY7y+HYn2xoGOQqWRQVGQz/jDQkoShkiKED4DS2xlLJBgV 8mX58FHsBky5x2E98rHoKvESSwFiV+DMn17H/GW3C1qma8otruVSJOb6EugMGsz5Ux/roKFIFKVz gKzAVFDJw3JSItu8DWmzYipaw9AbUJAdAEAYAUhKvPPQ6kLk0GwHXjz6X6ITAMD/hCfyAKbdLnQ3 7w7LE5CIxmrMBn5ZFUzwAtEGPCRE2ZufielAsU6vSp70ztMMgUwtSRpGFEIIwAW6g7qucV6Kgl4p yET+Dbn+7i8kOMyn4Wg/IardAILaB5/DkZf8Dr/2T5rC8gQkqLEszwf4Kc+dbASzAJLuA2Bydsjd /HXjm1hdSHu8Y/8feLsXnxRefwv06+4J/t72x+00Z0uIHYZOQqctlu6kZwESCOUE7KU6oOx383YT qzHbv76jgLACxEj1xp9CXTAPgN8haD/5ucAjukaGSCs3pyiCPf0B4QTgAuURG3+OQADwrqJv0SxW K0CpzkHtg88Ffz/7768JOJpwZmh2WCSiybJEl2ILIS0FoIXqwIydPwsA8K8L6aoNi9kKCF0KTLvH 4HLYkj4GEYTIpjwMEa5pKQCUax7v8DSKh6b4vVtdavoCAP9SQL/uHqzfuV9yBKYodBGuFkt3S/JG Eo1QAkCrerk8t1+2L8+nDQwSsxWgVOdg8eanRdWya7pM+A7OqcTMCOUDjdIXliwEEQAm1ZNb+BWA MZUcshS2AoSCShS9AndvSjS6rjEYnzsH49fDvFyPJkBJUPMfEDYUmFL9Zrr5b+c8fAv9/rDDfBrW I7O3L54EO3RdY1DsugCf2wffB7a4RYBhCzCtBYDyj/cOT0PLU2YgwZWCTMbkkY6P34aHpHlGusKi ht2sw2rUQHbvNV9LvCKgpPdntcR8YZ4QpQAAgLqpl0k9OTO+mn5L0DV4CZbmf+P1nqmMa3CA9HWx dnDmi64V+Zh5YEHQb+T7wAbTR/aYriUfphWACzFdlEeEFIAWuoPe4WkodvXAtKePNyGwabNoA4MA f+it09rBy/1SHWdIxZxQhO7gnAx6FufBvVUfFAHP0UGY3u/jfiGi7Hk0gqUAhyJkRSBW6x/PyREo To6gMl8J2Y25cC/KjStXwLuqCNhLv59+dOcjWPDt70Gp0iBvYRUU6hxR5gwkEpejP5H171ICmzYL mmerUPZWt79tXOsITADMm8tZX4NmB0Dw9T8goABYLN0jBoP+NIAlbM73Dk/De2QQiiOD0CNQlsqo xnSZClMFmayzu5zGbDBtqE25x2E59GHU63PLDVAXliJ3gRFKdQ5yF1YhU50j2jr08UC1A0C3nTob GVPJ0f+IHmXv9MLT4+IsAmLeAQCErwl4CiwFIBJPzzjQM44MAHMA6BHSrSYkpzs0DRSIL9lopM+C kT5LeGPLEEIbWgLXmlrGg8PcRvIaeXQe0YG3dOlqzF92W1wlzgcpyo7J5s+uGACtbYLx4TGmksP8 qB6m9/vgaR1hLQJi3wEAhBeAFgAP8HUx7/A0QCjuuWuvJ+uPDG1oCSQ/jJYw2R3m0ziz942onoNc cA3G5vRKJYqHpjDn1S6YaueyeqKbN5ejskAJ72dXWImAcmgKNF03LnAfMf8Ibc+1CHz/WU37J01o +2Oj0MMQLfl7/E49T+sIawdf5x0lwW1CT+sITC93QkNhVSr6xRsCTCCoAAS8oIKHQ0Yiz1fSJhCl EtY/f4ru5t2c3yfmWoC8MXFt4nIRga4V+fBsvQ4ylQwe+yTK3uomFQGaHADRZFgJvQQAWC4D1r/w n8E1rdPaAZejH6O9HXCY2+Jpx0QK0fiy4owTyrNOTjXoxUjHgXegW7WBU5us3AVG0iUMmx59qUL/ I3qUfWSHp9X/78vFwWc1aqDdqoe6qRce+ySKu8Ywtjgv7BzfAGVm64W4Bs4jYhCAfWAhAKEOrVxd FXJ1VZhfexsI/7vT2gHH+ROwn/oy7rW3IhC91bM4F1icC83GUhR3jUN51omZ7vGYi08KxZR7HO37 dmHR5qd5uV7x0JS/gWeKM6aSw7w50GgkVASGp9D/4ELGeAebNguanxlR3DWGnojJXzw0RdecRhQO QEAcAtDC5iSntYN2u40QBX39FnhcY+hv/RyXWr+k9NjTkTERbs6NqeQYC4gBAGjcXhTYJvyFHmyT gNsL34CbthuR0Fz8v/9B9catrK2ATBX1Zmlu1ziuLE99ASAwby6H0ZAN3wf++BBPjwtlb3Wj/xE9 owj4vxt5Ua9r6EPZJQEgCMQD7AdAW+zecf4E6/12hVoDXd3d0NXdDY9rDNav9sNyaG+Yhz4exlRy jBmzAZKApOKhKaiGyC0EojLMTJYck1p222lcgp50XePIsozBc/BK1LEp9zj6Wz9nXQk5d4GRUjzl lvFULb5JSdeKfFSoZZDvtcHn9gXX9mxEgAxlv5uuNb1oBCDp7cHJMBj0TwJ4le6cueUGrNnO3ZkV ClWr60gUFdkwP1oR172EhKoGfdmSOtzyDy+xuoaj/QSOvvgY5fHLv7o+JUOCmZYvWtsEVLu6g9ac onROTCJA0wdAkDbgVAi9DUiwj+mEkT4LXI7+uG5StWkrbnv+PWSqhGtumRRC6uGHwmU5VFR9M+3n VLYv9eIEjF8PI2eHmTa7z6bNwsCzVcGcEcIS4JqdSuMAFM3THxCJAAS2Axk9dwMnv4j7Xrm6Kqzc 9hbtOTT/eCmBN5/6Ccel8tH8pasoj3lOjsDUzM+SKhlobRPBNT5Tii8R/quo8Aupxz4J1S72IqC1 TaSEAxAQiQAEaGI6wXJoLy83ytVVQXfrHZTHxeLMqzgzShlkQoePxlzlkuNv+O79tMc9B6+g8tcd MBzjp3JOIhktUIZlgrIRAfOjeihq/da6z+1jLQJZNtoHiCQAFDQxneAavMRb7b4FdXfSHue9MClH tLYJZLx3kTLIhA663gp5C9knLjEJJeAPv57Za0Plrztgar4k+OdGRfCpzkEEAP8Ogewuf34HWxFg KGknCQAZge4o0e1wI7h45BNe7seU3kvlyU8GhCMK8Juf83d08FYhiWuC0OLNT7PymXiHp+E5eAU5 O8wwvdyJysMO3qs6xUusItC1pgiye7WQqWTwuX3I/veL9DeiEWCLpVsSABqamE6w/vnTWV+2a0ol g2zutVBkLuYnAMoiFJmqbM6pywq1Biu3vcXJceqxT8J7YABzXu3yWwZ7+lBxxhnTcoZvYhaBFfnB AiG+OurKUhq3l67L9eEYhpxQRCUAFkv3PgCjjOfN8rJdVwoy/V/SG64F43ARAapw3VjTkwnHaSy7 J97haXhOjiDjPSvmPXceppc7YWq+xHu5Nyq0tglUfhrurAyKQO213Tg2ImDTZmH0KSO6VlDHQBSn QApwKKISgACMPbC6D30w662AMZUc5gcXQrHyWjlzNiJQcYa8GzIAlNSujnk8uboqrN+5n9EnwITH PgnPwStQ7OqB8blzMO3pS5hlYPx6GKpd3fB+diUq0YcIA+YqAkwh0JkptP4HxCkATUwnEFFtiWQO vSc3aZg3lYZXqWUQAeVZagEoq709rrEo1BrUPNyIH7zxGRbf9zjUhSVxXc/n9sFzciQmRycTFWdG 4fvAFtzRocr2i0UE6Jih7wPYEvOFE4ToBCAQE/Ae03kdH7+d0HFE5gMISWj6KUAtAhq3F75z5AJQ tqSOUzYgHQq1Bvr6LVi/cz9ue/49GNbdE5cYeOyTKNvDb9/DnsV5Qcdd8D4JFgGG9b8oioBGIjoB CNDEdIJr8FJaNfKwGjVwb73mvPK5fVA3hZdSKPvSQRnDEI/5T0eurgqLNj8dtxh4zjl59wsQjrvQ 2g6e1hGY3oy2OEK3+4DYRIBh/d/C6WJJQpQCEKiWwugxnS2NPNiavzZtVjBCTaaSwdWwMOwaviOD pO/LVGXHbf6zIVIMdLfewclxmHWc/4AimzYL9p8Zg1F9wLVsv8jPndjuI+AqAgzr/xbWF0oiohSA AI1MJ8TbyIP2y0ldz51XdF3jmPfceVQedrA6n4hQc2/VhxWzpHv6z1+6ijfzny25uirUPNyI7/3u EGp+/CzmlhsY3+M5OZIQh2Awqi/EoUpVyYesKQhbEfD9ldr/AkkAuMHWCohnRyB3gTGm9/FJVvNl AID3wAAnj3jo5Kd7+gPMUY+JRld3N9Zs340Vj/6G0SIoodnFiBfCoRps9kEhAkRTkODS4RPmxKfi oSm6QjGjYgsAIhCtAARoZDqBqHbDOxM02dw84r3lmvOJ8IhzDaele/qrC0tE09Rkfu1tjPEEfHeG jiQ0oAegFoHg0qF2LmS1zLUP5tILV0vsI04sohYAtlaA5dCHvLfzovHm8opleT4y7gt/KuW92sXa Icb09K+6+yFexklgP/k5Oj7ahVFre0zvz9VVYcG3v0d5PBGdoSOhSvmNFAEiVsC8qZTxmhknaJcJ LbGPNrGIWgACNLI56cyeVxI8jMRhWR7urfa5ff6+iCzSbeme/nw7/0at7Wh791/Q/kkTWrY34OA/ 3o2LXzGmb0Qxv3Yt5THv8HRSEorGVHKYf14Z3P4jRCCWexcPTTE9MFpiGmQSEL0AsLUCHObTGGiN v15AKMlMZgmanDfkBl/zHLwC0ztWWr8A3dOfb+ffsTe2Ydp9zTnqGrqM1qbf4NjrP+d0HaYlSW6S woSBwPYfUec/YH1x/XdnMP97xbr+B1JAAAI0sDmp7Z1/4eQQVBfSm3bxtBGLBX/4ry58SXDOSVmR xnBsmLZ2QdXGv+d1fOtf/BjLH9kB/bp7oC6YF3zd/s1RztcqMlF3hOPDD2D8epj1RO5akY/Jp4zB bD9OiVdIXfMfSBEBCERQvc50HleHYGgfPzKECgcmlgSha1TVru6oOH/5V9Rbh2VL6uLqDUhF6bLb sXjz01j/4sdY/8J/YNF9j6O24Recr0ObmESTTsuG4qEp4BN74DNjzC0DEO4XIESA7b0YzH/GcndC khICEKARbDIFD33IumiIUk3fJ1jIcGAi6EdZ59+79rl9yHjPGvQLaG0TtF+8iu/+MOFjVBdpYajf ggWraAs6k1J4PfUyIF4HbP4+O3xuX+Azu8h6Hz/UL5AREjNAR8GX1Esw+Lf/JAHgg0DBkCfZnNv2 zq9YLQVymarj0CTW8AXd+n5MJUfHxlLMPKC7tiQ4eAWmN3uQHYgfIGNuuUE0W39UMI0vnrDg8fqS qHz/yJRgOsyby9F5B3M4s8bthfckrbiIevIDKSQAAGCxdDeBhUPQNXgJZ95nLn/NZCJ77JMJrXdn erMH83d0MEYB9izOxehTxmtLgp5xeCiSfgCgYv3f8jrOREHnB8iiz6qjJRgyHZLgQ5YSHC8lZ5xM 9SMlAUgADWCxFLD++VPGXQF1URljZFrGAXtCdgN0XePw9IzD5/b5owAZvP3BIiHL6EvKqwtLWDf/ EBpaP4AtvmUAsYcfmuDjaR2B6Z1e3sKNZQeprTCkgPkPpKAABByCjWzObXvnXxh7CTBVySEcQnzH qKsilheec06UvkK/BTWmkmPiFvqoNN2t1EE2YoPODzBj58cB27WmKCyV2nPuKi/1BwzHhpl6RIp+ 8gMpKAAAYLF0vwYWS4Ep9zja3t5Oe86Cuh8w3s/n9iWkaEUk3uFpqHZ1x7XsMNT/iMcRJRY6P4B3 eJrz561xe0kF1GrU8NLsIxSGpz/AorKVGEhJAQiwESyWAg7zaXR8RL01OL/2NnaZajR94GOhY2Mp 5HdFb0P63D7M7LWhKsbOO8nO+osXOj8AQ359GBq3F2VvdVPu4Qc9/AHvPtdmH6FUHnYwPf1Pizn4 J5SUFYDArkADm3PbP2mi9QesfOb3gohA55oiTIY490KZPjKY0Hp5YoFuCUbX3yCSsj198NgnGQN5 QjMCiXPZxgoAfqGZ+Wx2PP2BFBYAIFhFmDFACKD3ByjUGqzZvptVwUu+RSByvz/sXiT18uLxjouR 0mW3UR/kUJPBd+O1EGomEQitFMQ1VkDbfJnJ8z8a2K1KCVJaAADAYul+Eiz6Ck65x3H8jX+kjQ+o ebgRNT9+lvGefIsA2X5/6L24NAaJt4FqssnVVVHuxFCVNycjNJwXYBaBa7kX/mAw3wc2xn9PrW0C 0zS5FwFS5ukPzAIBCMDKHzDSZ0HbHxtpz9HV3c2qgzDfIgD49/sHnq2CoiL83sSXmU1wTLwC4HLY YGnejY6PdqHjo12wNO/GtOtqXNdkgm4ZwCUgyKbNiqqbqNrVTfl0J0qvy79TDNm9WsYW4Iwdgfzf wZQSgIyZmRmhx8ALBoN+KYA2VueuuweLNj9Ne47T2oGvf7cNrkH6CLJY+8czUXnYAe+BgajX5flK WgdU9Z0NqNq0Neb7dny0C+2fNIW9plSpUXXXQzDUb4n5unRYj3yMtnd3kB5TrC+GuZ5bkVHCIRga Uiy7V0vb0IMJU/MleA5eYTptu8XS3RjzTQRgtlgARM+1H7M699CHjBWFc3VVuK1xN6NzMBGWAEDt IGTwPsNhZqWBlOTqTFGvTbtdOLv3DbT94fmEWAO0YcExhGNH5voD8dX719om2Ez+3lSb/MAsEgAg GCrMzin47g7GSEGFWsNqhyARde0BegchFQ7z6bgqJWfSJEhZ/9KMoy/8NOZqQFSoi8ooP2OPfTJm cTVvLof8O8XB32MRAY3by8b0B1jmqYgNeWNjo9Bj4JUnnnji09/+9vUKAEuZzr1y9i8oWfQtzMmj bvYoU2aiwLAI/ccOwuuhfvr6rkyieGYGg0Z+9+GnlDIMVudgbmkW5OarmPEwL9k088uRx7EJKIG6 WIsMnwf679yHijUbofv295FbbsSY/QKm3eOYdA7jwuF9yPB5kLewCnLlNQtl1NqO3s8/RAZmoC7W Ut+EhDF7D4Z7zpH/PcVzMKxVxfT3DBk1KMxTYuac33KZOXcVhXlKDJWzu17Ff12C5xyj1XPYYun+ p5gGKDCzxgcQicGgPwWAOsokQKYqGyu3vcXYNddp7cAX2x9gvK9nawWsRm5NNE3Nl1itc4uHppD/ bi9juqy6sATrd3Iv1UXHtOsq2vf9Ht2HPgx7vajyJgCAa3AAriH//nheuR5rt7/P6fp0n6/ihlyY H9TFMOprEC3XiS08Nj4Bw7FhzOxlZdlViLHrDxtm1RIggrVguT14dOcjjEVFc3VVWHzf44w3nfMn bsE7xPrS9GYP4/uuFGTC/PNKxiWBa/AS70VSleocLN78NJY/sgNK1bUmG47Ob+Do/CY4+f33j3Ze MpGrq6LsKOQ5F39r8agdAoblgNY2gYwDrKIxt6fq5AdmsQAEIgXXgkcR0NdvoQ1dBfxOurIv2TX5 AIDss/7dS0/POGMyEAFVGHEo9pP81kckKF12u79L8LfqSY8rVWqs3PZWbNdeuor6GA9p2cE04RAR ICsCqnF7oW7qZQr4Afymf2PcAxOQWbsEIDAY9HPhr8vGy3LA5ejH4ca/w5Sbfn/66rMmxlbSgL8m QGTAi/yu+ehcQ+2XIKj8dQflrkCRaQlWPvN7xmvEw7TrKpy97RixmgEAc3Um5C6sZqy0RIXL0Y+D z/wN6TFF6RyYf14Z81gjMX1kx8TiHFgjfDZkW4gUjAJYmspPf2AWWwAEfFsC6qIy6Nfdy3jf/H3s zODh+7VRgT9s6gMAgG/9PMpjDjPjnxs3SnUOCq+/BYb6LTDUb0Hh9bfEPPkB/2dLZWF57JO8lgs3 byqNmvwAULbPzrYkWUOqT34gDQQA4F8EqjZtZeyAy7bb7ZWCTJgfrYBifXHY62zqA1iW50eFDofC tjaimKja8BPKYwz19+LGtKcPnpMjbE59PRWKfbAhLQQAiE0E6CYQm447WTR1+yIx15fAs7UibEJ7 h6cx59Uu2pJhspA+ApEMnk89ASiqvpnSCvCeHE5YdiSHyX84kH8yK0gbAQBiEIEXH6OMGNTV3c1s BfSMc4pltxqzSXMB6JYE04uoBcB5sYv1vcUElRXgc/sS0jyUw+Q/DX/eyawhrQQA8IuAxdK9FMB7 bM5ve3cHzlIUGK158DnG92dxNFv9razJlwRkVWyu0MQcxBsWLBRF1TejbEkd6TEWlXg4wWHyjwJY G3iIzBrSTgAILJbuBrAMG7Yc+hDHf/t0VIhtUfXNzGHC55wxOa/M9SWYfMp4rUU1rlWxCS0ZNqaS R1kMBFPu8ZRLDya4cfPPSF/3Dk/HVTI8lHSf/EAaCwAQrCXAKoGo//QRfNG4Jco5yKYEdz4HX0Ao ZP0CiZJhYdWCjGqKK6SmIxDw7whU39lAeoyLb4UMjdsL08udXCd/SpT44kpaCwAQTCCqAYt6Aq7B S/hi+wPobt4dfI2NL8AXRyQb0S8wMvCHqBaktU1guow6rt0Z2KNPRQz1PyKty8DVtxKK1jaB0le6 2G71zerJD0gCACCYSnwdWDgHAeDM3jdw9IWfBs1rplLcfDivyNKDiSWB8jj1k2z0Ymdc9xUShVpD GXMRixVgar6EOa92MaZUBzgNf6DPrJ38QBpEAnLFYNC/BuAJNudmqrKhX3cvFqy6mzKCjYCvSDaN 2+sPVmFnvgIANrz9l7jvKyQHt20gLczCNvHKcGwYsoOX2U58wD/5Z+WaPxJJAEgwGPQbATQByGNz vrqwhLFyEABMPmWETZsV3+ACGI4NI+OAnU28Olb+4+9E3yuQDqqKQYqKbJgfraB8XwwTHwDeCziI 0wJpCUBCIMprKVguCdhMfgDQHOevz2BkC3E6nL38ZgYmGyo/i6dnPKxlusbtRcUZJ0x7+mB87hxm 9tq4Tv6n0mnyA5IFwIjBoG8E8Dwf15LnK9H5y9gKdVChcXuhbb5MW61Wd+sdqHm4kdf7Jpvu5t04 s/eNqNdlKhlk81XAhCeetuK9ADbO9vU+GZIFwEAg3bMGLK0BOrzD07w3GiVKitOlBztT2BFIoFu1 gfR1n9vn75Yc++TfjzRw9lEhCQALAl+OtQDoGw2yILv5Mq9ZbQT25dTVbUb6LLzfL9ko1BpW3Zs4 MApgk8XSvTEdnH1USALAkkAIcSPitAY855zI2WGG6eVOVO3jr/X4mEpO6w9I1YCgUHjse/g6gOtm S0ZfPCiEHkCqEbAGlhoM+ifhb1POaqcgEo99ErBPYs6RQVTmKyG7MRdjt+THtUuQYdAAFKaws7cj ZXcCXI5+dOz7Vz5qHBwG0GixdLfEP6rZgSQAMWKxdL9mMOj3wd8JhnyByhLv8DS8RwbDxGBodSGr ikKheMqoxSPVAoI8rjH0t36OS61fov/0kXgv1wv/xG+Kf2SzC2kXgAcMBv1a+IWAsewYFxSlc5Bh 0MC9KJdVwEvx0BRydpCH/s4tN2DN9t2kx8SCy9GPgZNfYLCjjY9JD0gTnxFJAHjEYNA3wC8EMS0L 6JCpZJBVaDBjUGNSq6IUBLo6gWKLCHQ5+uG0dsDeehgOcxvreAoWSBOfJZIA8EygCOmTgR/ehSAU RUU2MrRZmDJkY0ybhSsFmTC9Y4XnHHnegdARgY72E3D2dmD0YiffE57gMIDXJOceeyQBSBDJFAIC mUqGjCw5pQWw+L7HoU9Qg89QXI5+uBz9GDx/Aq7BATgvdiZyK3IU/rDt12ZDkc5kIwlAggkRggYA C4Uci7qwBHPLK5G7wAgAyFtYBUVIFV91URnURWWU73daOzAV0hzU2duBaddVTLvHMHqxEx7XWDJj DvYD2CeZ+fEhCUASCfgIGgCsEXYkKct+APvgn/hpG7zDJ5IACIDBoL8OfqtgIwS2CkROL/xNXfYB aJEmPf9IAiAwgdRj4icpvgIRMwr/hG+Bf8KnZXx+MpEEQEQExGAt0scyIJ7wLQBOSRM++UgCIFIC y4S1IT+pLgi9AE4Fflrgn/CSSS8wkgCkCAFBWBr4WQt/DUMxikIvgAvwT/IR+Cd6i4DjkaBBEoAU JxCGfF3Ez1zwHJYcwuHAf0fgf5oH/yuZ8KmHJACznEAcwlKSQ5GvXwj8RCJN7FmMJAASEmmMVBBE QiKNkQRAQiKNkQRAQiKNkQRAQiKNkQRAQiKNkQRAQiKNkQRAQiKNkQRAQiKNkQRAQiKNkQRAQiKN kQRAQiKNkQRAQiKNkQRAQiKNkQRAQiKNkQRAQiKNkQRAQiKNkU7C0jcAAABHSURBVARAQiKNkQRA QiKNkQRAQiKNkQRAQiKNkQRAQiKNkQRAQiKNkQRAQiKNkQRAQiKNkQRAQiKNkQRAQiKNkQRAQiKN +f8K3a/Xg9qEewAAAABJRU5ErkJggg== "
       preserveAspectRatio="none"
       height="67.73333"
       width="67.73333"
       x="73.489174"
       y="162.86717" />
    <text
       xml:space="preserve"
       id="text2381"
       style="font-size:22.5778px;line-height:1.36;font-family:'TeX Gyre Pagella Math';-inkscape-font-specification:'TeX Gyre Pagella Math';white-space:pre;shape-inside:url(#rect2383);"
       transform="translate(-19.442785,-81.36902)"><tspan
         x="59.894531"
         y="330.39103"><tspan
           style="shape-inside:url(#rect2383)">Factual World</tspan></tspan></text>
    <path
       style="fill:none;fill-rule:evenodd;stroke:#000000;stroke-width:1.70217;stroke-linecap:butt;stroke-linejoin:miter;stroke-miterlimit:4;stroke-dasharray:none;stroke-dashoffset:0;stroke-opacity:1;marker-end:url(#Arrow1Lend)"
       d="m 43.106315,108.52194 c 41.164391,64.87362 41.164391,64.87362 41.164391,64.87362"
       id="path2389" />
    <path
       id="path2389-0"
       d="m 168.28671,104.64155 c -41.16439,64.87362 -41.16439,64.87362 -41.16439,64.87362"
       style="fill:none;fill-rule:evenodd;stroke:#000000;stroke-width:1.70217;stroke-linecap:butt;stroke-linejoin:miter;stroke-miterlimit:4;stroke-dasharray:none;stroke-dashoffset:0;stroke-opacity:1;marker-end:url(#Arrow1Lend-3)" />
    <g
       inkscape:label=""
       transform="matrix(1.9920005,0,0,2.0225734,-27.123049,-122.57375)"
       id="g4283">
      <g
         id="g7650">
        <g
           id="g7976"
           style="fill:#000000;fill-opacity:1">
          <use
             height="100%"
             width="100%"
             id="use8540"
             y="81.962997"
             x="91.925003"
             xlink:href="#symbol5264" />
        </g>
        <g
           id="g9456"
           style="fill:#000000;fill-opacity:1">
          <use
             height="100%"
             width="100%"
             id="use9369"
             y="81.962997"
             x="102.206"
             xlink:href="#symbol2186" />
        </g>
        <g
           id="g6678"
           style="fill:#000000;fill-opacity:1">
          <use
             height="100%"
             width="100%"
             id="use3519"
             y="81.962997"
             x="113.32227"
             xlink:href="#symbol5220" />
        </g>
        <g
           id="g7387"
           style="fill:#000000;fill-opacity:1">
          <use
             height="100%"
             width="100%"
             id="use5177"
             y="81.962997"
             x="112.722"
             xlink:href="#symbol378" />
        </g>
      </g>
    </g>
    <g
       inkscape:label=""
       transform="matrix(2.0100404,0,0,2.0225734,-176.92582,-123.23729)"
       id="g4373">
      <g
         id="g6158">
        <g
           id="g1061"
           style="fill:#000000;fill-opacity:1">
          <use
             height="100%"
             width="100%"
             id="use40"
             y="81.962997"
             x="91.925003"
             xlink:href="#symbol5680" />
        </g>
        <g
           id="g628"
           style="fill:#000000;fill-opacity:1">
          <use
             height="100%"
             width="100%"
             id="use8594"
             y="81.962997"
             x="102.206"
             xlink:href="#symbol1372" />
        </g>
        <g
           id="g3489"
           style="fill:#000000;fill-opacity:1">
          <use
             height="100%"
             width="100%"
             id="use3013"
             y="81.962997"
             x="112.722"
             xlink:href="#symbol5460" />
        </g>
      </g>
    </g>
  </g>
</svg>
